%!PS-Adobe-2.0 EPSF-2.0
%%BoundingBox:  0 0 567 385
%%Title: figs_2016Jan25/jpsi_source_nonPrompt.eps: c1
%%Creator: ROOT Version 6.04/02
%%CreationDate: Mon Jan 25 17:27:50 2016
%%DocumentNeededResources: ProcSet (FontSetInit)
%%EndComments
%%BeginProlog
80 dict begin
/s {stroke} def /l {lineto} def /m {moveto} def /t {translate} def
/r {rotate} def /rl {roll}  def /R {repeat} def
/d {rlineto} def /rm {rmoveto} def /gr {grestore} def /f {eofill} def
/c {setrgbcolor} def /black {0 setgray} def /sd {setdash} def
/cl {closepath} def /sf {scalefont setfont} def /lw {setlinewidth} def
/box {m dup 0 exch d exch 0 d 0 exch neg d cl} def
/NC{systemdict begin initclip end}def/C{NC box clip newpath}def
/bl {box s} def /bf {gsave box gsave f grestore 1 lw [] 0 sd s grestore} def /Y { 0 exch d} def /X { 0 d} def 
/K {{pop pop 0 moveto} exch kshow} bind def
/ita {/ang 15 def gsave [1 0 ang dup sin exch cos div 1 0 0] concat} def 
/mp {newpath /y exch def /x exch def} def
/side {[w .77 mul w .23 mul] .385 w mul sd w 0 l currentpoint t -144 r} def
/mr {mp x y w2 0 360 arc} def /m24 {mr s} def /m20 {mr f} def
/mb {mp x y w2 add m w2 neg 0 d 0 w neg d w 0 d 0 w d cl} def
/mt {mp x y w2 add m w2 neg w neg d w 0 d cl} def
/m21 {mb f} def /m25 {mb s} def /m22 {mt f} def /m26{mt s} def
/m23 {mp x y w2 sub m w2 w d w neg 0 d cl f} def
/m27 {mp x y w2 add m w3 neg w2 neg d w3 w2 neg d w3 w2 d cl s} def
/m28 {mp x w2 sub y w2 sub w3 add m w3 0 d  0 w3 neg d w3 0 d 0 w3 d w3 0 d  0 w3 d w3 neg 0 d 0 w3 d w3 neg 0 d 0 w3 neg d w3 neg 0 d cl s } def
/m29 {mp gsave x w2 sub y w2 add w3 sub m currentpoint t 4 {side} repeat cl fill gr} def
/m30 {mp gsave x w2 sub y w2 add w3 sub m currentpoint t 4 {side} repeat cl s gr} def
/m31 {mp x y w2 sub m 0 w d x w2 sub y m w 0 d x w2 sub y w2 add m w w neg d x w2 sub y w2 sub m w w d s} def
/m32 {mp x y w2 sub m w2 w d w neg 0 d cl s} def
/m33 {mp x y w2 add m w3 neg w2 neg d w3 w2 neg d w3 w2 d cl f} def
/m34 {mp x w2 sub y w2 sub w3 add m w3 0 d  0 w3 neg d w3 0 d 0 w3 d w3 0 d  0 w3 d w3 neg 0 d 0 w3 d w3 neg 0 d 0 w3 neg d w3 neg 0 d cl f } def
/m2 {mp x y w2 sub m 0 w d x w2 sub y m w 0 d s} def
/m5 {mp x w2 sub y w2 sub m w w d x w2 sub y w2 add m w w neg d s} def
%%IncludeResource: ProcSet (FontSetInit)
%%IncludeResource: font Times-Roman
%%IncludeResource: font Times-Italic
%%IncludeResource: font Times-Bold
%%IncludeResource: font Times-BoldItalic
%%IncludeResource: font Helvetica
%%IncludeResource: font Helvetica-Oblique
%%IncludeResource: font Helvetica-Bold
%%IncludeResource: font Helvetica-BoldOblique
%%IncludeResource: font Courier
%%IncludeResource: font Courier-Oblique
%%IncludeResource: font Courier-Bold
%%IncludeResource: font Courier-BoldOblique
%%IncludeResource: font Symbol
%%IncludeResource: font ZapfDingbats
/reEncode {exch findfont dup length dict begin {1 index /FID eq  {pop pop} {def} ifelse } forall /Encoding exch def currentdict end dup /FontName get exch definefont pop } def [/Times-Bold /Times-Italic /Times-BoldItalic /Helvetica /Helvetica-Oblique
 /Helvetica-Bold /Helvetica-BoldOblique /Courier /Courier-Oblique /Courier-Bold /Courier-BoldOblique /Times-Roman /AvantGarde-Book /AvantGarde-BookOblique /AvantGarde-Demi /AvantGarde-DemiOblique /Bookman-Demi /Bookman-DemiItalic /Bookman-Light
 /Bookman-LightItalic /Helvetica-Narrow /Helvetica-Narrow-Bold /Helvetica-Narrow-BoldOblique /Helvetica-Narrow-Oblique /NewCenturySchlbk-Roman /NewCenturySchlbk-Bold /NewCenturySchlbk-BoldItalic /NewCenturySchlbk-Italic /Palatino-Bold
 /Palatino-BoldItalic /Palatino-Italic /Palatino-Roman ] {ISOLatin1Encoding reEncode } forall
%%EndProlog
%%BeginSetup
%%EndSetup
newpath  gsave  .25 .25 scale  gsave  0 0 t black[  ] 0 sd 3 lw 1 1 1 c 2268 1540 0 0 bf black 1 1 1 c 1791 1155 363 308 bf black 1791 1155 363 308 bl 1 1 1 c 1791 1155 363 308 bf black 1791 1155 363 308 bl 6 lw 1 1 1 c black 363 1410 m 64 X -5 Y 64
 X -57 Y 64 X -42 Y 64 X -55 Y 64 X -27 Y 64 X -37 Y 64 X -1 Y 64 X -159 Y 128 X -1 Y 64 X -43 Y 64 X -3 Y 64 X -80 Y 64 X -40 Y 64 X -96 Y 64 X -35 Y 64 X -9 Y 64 X -5 Y 63 X -90 Y 64 X -9 Y 64 X -15 Y 64 X -13 Y 64 X -10 Y 64 X -52 Y 64 X -79 Y 64
 X -58 Y 64 X -24 Y 64 X s 3 lw 363 308 m 1791 X s
 gsave  2268 1540 0 0 C 1978.57 38.9865 t 0 r /Helvetica findfont 71.4753 sf 0 0 m (pdgId) show NC gr 
 gsave  2268 1540 0 0 C 412.607 220.924 t 90 r /Helvetica findfont 48.7332 sf 0 0 m (511) show NC gr 
 gsave  2268 1540 0 0 C 477.585 220.924 t 90 r /Helvetica findfont 48.7332 sf 0 0 m (521) show NC gr 
 gsave  2268 1540 0 0 C 539.314 129.955 t 90 r /Helvetica findfont 48.7332 sf 0 0 m (100443) show NC gr 
 gsave  2268 1540 0 0 C 604.291 159.195 t 90 r /Helvetica findfont 48.7332 sf 0 0 m (20443) show NC gr 
 gsave  2268 1540 0 0 C 669.269 220.924 t 90 r /Helvetica findfont 48.7332 sf 0 0 m (531) show NC gr 
 gsave  2268 1540 0 0 C 730.997 168.942 t 90 r /Helvetica findfont 48.7332 sf 0 0 m (\2555122) show NC gr 
 gsave  2268 1540 0 0 C 795.975 266.408 t 90 r /Helvetica findfont 48.7332 sf 0 0 m (0) show NC gr 
 gsave  2268 1540 0 0 C 860.953 211.177 t 90 r /Helvetica findfont 48.7332 sf 0 0 m (445) show NC gr 
 gsave  2268 1540 0 0 C 925.93 168.942 t 90 r /Helvetica findfont 48.7332 sf 0 0 m (\2555132) show NC gr 
 gsave  2268 1540 0 0 C 987.659 165.693 t 90 r /Helvetica findfont 48.7332 sf 0 0 m (10441) show NC gr 
 gsave  2268 1540 0 0 C 1052.64 168.942 t 90 r /Helvetica findfont 48.7332 sf 0 0 m (\2555232) show NC gr 
 gsave  2268 1540 0 0 C 1117.61 204.679 t 90 r /Helvetica findfont 48.7332 sf 0 0 m (\255511) show NC gr 
 gsave  2268 1540 0 0 C 1179.34 204.679 t 90 r /Helvetica findfont 48.7332 sf 0 0 m (\255521) show NC gr 
 gsave  2268 1540 0 0 C 1244.32 220.924 t 90 r /Helvetica findfont 48.7332 sf 0 0 m (541) show NC gr 
 gsave  2268 1540 0 0 C 1309.3 204.679 t 90 r /Helvetica findfont 48.7332 sf 0 0 m (\255531) show NC gr 
 gsave  2268 1540 0 0 C 1371.03 159.195 t 90 r /Helvetica findfont 48.7332 sf 0 0 m (10443) show NC gr 
 gsave  2268 1540 0 0 C 1436 185.186 t 90 r /Helvetica findfont 48.7332 sf 0 0 m (5122) show NC gr 
 gsave  2268 1540 0 0 C 1500.98 168.942 t 90 r /Helvetica findfont 48.7332 sf 0 0 m (\2555332) show NC gr 
 gsave  2268 1540 0 0 C 1565.96 103.964 t 90 r /Helvetica findfont 48.7332 sf 0 0 m (9940003) show NC gr 
 gsave  2268 1540 0 0 C 1627.69 103.964 t 90 r /Helvetica findfont 48.7332 sf 0 0 m (9942003) show NC gr 
 gsave  2268 1540 0 0 C 1692.67 185.186 t 90 r /Helvetica findfont 48.7332 sf 0 0 m (5132) show NC gr 
 gsave  2268 1540 0 0 C 1757.64 185.186 t 90 r /Helvetica findfont 48.7332 sf 0 0 m (5232) show NC gr 
 gsave  2268 1540 0 0 C 1819.37 103.964 t 90 r /Helvetica findfont 48.7332 sf 0 0 m (9941003) show NC gr 
 gsave  2268 1540 0 0 C 1884.35 204.679 t 90 r /Helvetica findfont 48.7332 sf 0 0 m (\255541) show NC gr 
 gsave  2268 1540 0 0 C 1949.33 246.915 t 90 r /Helvetica findfont 48.7332 sf 0 0 m (21) show NC gr 
 gsave  2268 1540 0 0 C 2011.06 266.408 t 90 r /Helvetica findfont 48.7332 sf 0 0 m (4) show NC gr 
 gsave  2268 1540 0 0 C 2076.03 159.195 t 90 r /Helvetica findfont 48.7332 sf 0 0 m (30443) show NC gr 
 gsave  2268 1540 0 0 C 2141.01 185.186 t 90 r /Helvetica findfont 48.7332 sf 0 0 m (5332) show NC gr  363 344 m -36 Y s 427 344 m -36 Y s 491 344 m -36 Y s 555 344 m -36 Y s 619 344 m -36 Y s 683 344 m -36 Y s 747 344 m -36 Y s 811 344 m -36 Y s 875
 344 m -36 Y s 939 344 m -36 Y s 1003 344 m -36 Y s 1067 344 m -36 Y s 1131 344 m -36 Y s 1195 344 m -36 Y s 1259 344 m -36 Y s 1323 344 m -36 Y s 1387 344 m -36 Y s 1451 344 m -36 Y s 1515 344 m -36 Y s 1578 344 m -36 Y s 1642 344 m -36 Y s 1706 344
 m -36 Y s 1770 344 m -36 Y s 1834 344 m -36 Y s 1898 344 m -36 Y s 1962 344 m -36 Y s 2026 344 m -36 Y s 2090 344 m -36 Y s 2154 344 m -36 Y s 363 1463 m 1791 X s 363 1426 m 37 Y s 427 1426 m 37 Y s 491 1426 m 37 Y s 555 1426 m 37 Y s 619 1426 m 37
 Y s 683 1426 m 37 Y s 747 1426 m 37 Y s 811 1426 m 37 Y s 875 1426 m 37 Y s 939 1426 m 37 Y s 1003 1426 m 37 Y s 1067 1426 m 37 Y s 1131 1426 m 37 Y s 1195 1426 m 37 Y s 1259 1426 m 37 Y s 1323 1426 m 37 Y s 1387 1426 m 37 Y s 1451 1426 m 37 Y s
 1515 1426 m 37 Y s 1578 1426 m 37 Y s 1642 1426 m 37 Y s 1706 1426 m 37 Y s 1770 1426 m 37 Y s 1834 1426 m 37 Y s 1898 1426 m 37 Y s 1962 1426 m 37 Y s 2026 1426 m 37 Y s 2090 1426 m 37 Y s 2154 1426 m 37 Y s 363 308 m 1155 Y s
 gsave  2268 1540 0 0 C 133.204 1211.83 t 90 r /Helvetica findfont 71.4753 sf 0 0 m (Fraction) show NC gr  388 319 m -25 X s 388 331 m -25 X s 388 342 m -25 X s 388 352 m -25 X s 414 361 m -51 X s
 gsave  2268 1540 0 0 C 315.141 363.874 t 0 r /Helvetica findfont 48.7332 sf 0 0 m (6) show NC gr 
 gsave  2268 1540 0 0 C 289.15 363.874 t 0 r /Symbol findfont 48.7332 sf 0 0 m (-) show NC gr 
 gsave  2268 1540 0 0 C 211.177 331.386 t 0 r /Helvetica findfont 71.4753 sf 0 0 m (10) show NC gr  388 418 m -25 X s 388 452 m -25 X s 388 476 m -25 X s 388 494 m -25 X s 388 509 m -25 X s 388 522 m -25 X s 388 533 m -25 X s 388 543 m -25 X s 414
 551 m -51 X s
 gsave  2268 1540 0 0 C 315.141 552.309 t 0 r /Helvetica findfont 48.7332 sf 0 0 m (5) show NC gr 
 gsave  2268 1540 0 0 C 289.15 552.309 t 0 r /Symbol findfont 48.7332 sf 0 0 m (-) show NC gr 
 gsave  2268 1540 0 0 C 211.177 519.82 t 0 r /Helvetica findfont 71.4753 sf 0 0 m (10) show NC gr  388 609 m -25 X s 388 642 m -25 X s 388 666 m -25 X s 388 685 m -25 X s 388 700 m -25 X s 388 713 m -25 X s 388 724 m -25 X s 388 733 m -25 X s 414 742
 m -51 X s
 gsave  2268 1540 0 0 C 315.141 740.744 t 0 r /Helvetica findfont 48.7332 sf 0 0 m (4) show NC gr 
 gsave  2268 1540 0 0 C 289.15 740.744 t 0 r /Symbol findfont 48.7332 sf 0 0 m (-) show NC gr 
 gsave  2268 1540 0 0 C 211.177 711.504 t 0 r /Helvetica findfont 71.4753 sf 0 0 m (10) show NC gr  388 799 m -25 X s 388 833 m -25 X s 388 857 m -25 X s 388 875 m -25 X s 388 890 m -25 X s 388 903 m -25 X s 388 914 m -25 X s 388 924 m -25 X s 414
 933 m -51 X s
 gsave  2268 1540 0 0 C 315.141 935.677 t 0 r /Helvetica findfont 48.7332 sf 0 0 m (3) show NC gr 
 gsave  2268 1540 0 0 C 289.15 935.677 t 0 r /Symbol findfont 48.7332 sf 0 0 m (-) show NC gr 
 gsave  2268 1540 0 0 C 211.177 903.188 t 0 r /Helvetica findfont 71.4753 sf 0 0 m (10) show NC gr  388 990 m -25 X s 388 1024 m -25 X s 388 1047 m -25 X s 388 1066 m -25 X s 388 1081 m -25 X s 388 1094 m -25 X s 388 1105 m -25 X s 388 1114 m -25 X s
 414 1123 m -51 X s
 gsave  2268 1540 0 0 C 315.141 1120.86 t 0 r /Helvetica findfont 48.7332 sf 0 0 m (2) show NC gr 
 gsave  2268 1540 0 0 C 289.15 1120.86 t 0 r /Symbol findfont 48.7332 sf 0 0 m (-) show NC gr 
 gsave  2268 1540 0 0 C 211.177 1091.62 t 0 r /Helvetica findfont 71.4753 sf 0 0 m (10) show NC gr  388 1181 m -25 X s 388 1214 m -25 X s 388 1238 m -25 X s 388 1256 m -25 X s 388 1271 m -25 X s 388 1284 m -25 X s 388 1295 m -25 X s 388 1305 m -25 X
 s 414 1314 m -51 X s
 gsave  2268 1540 0 0 C 321.639 1312.55 t 0 r /Helvetica findfont 48.7332 sf 0 0 m (1) show NC gr 
 gsave  2268 1540 0 0 C 295.648 1312.55 t 0 r /Symbol findfont 48.7332 sf 0 0 m (-) show NC gr 
 gsave  2268 1540 0 0 C 217.675 1283.31 t 0 r /Helvetica findfont 71.4753 sf 0 0 m (10) show NC gr  388 1371 m -25 X s 388 1405 m -25 X s 388 1429 m -25 X s 388 1447 m -25 X s 388 1462 m -25 X s 2154 308 m 1155 Y s 2129 319 m 25 X s 2129 331 m 25 X s
 2129 342 m 25 X s 2129 352 m 25 X s 2103 361 m 51 X s 2129 418 m 25 X s 2129 452 m 25 X s 2129 476 m 25 X s 2129 494 m 25 X s 2129 509 m 25 X s 2129 522 m 25 X s 2129 533 m 25 X s 2129 543 m 25 X s 2103 551 m 51 X s 2129 609 m 25 X s 2129 642 m 25 X
 s 2129 666 m 25 X s 2129 685 m 25 X s 2129 700 m 25 X s 2129 713 m 25 X s 2129 724 m 25 X s 2129 733 m 25 X s 2103 742 m 51 X s 2129 799 m 25 X s 2129 833 m 25 X s 2129 857 m 25 X s 2129 875 m 25 X s 2129 890 m 25 X s 2129 903 m 25 X s 2129 914 m 25
 X s 2129 924 m 25 X s 2103 933 m 51 X s 2129 990 m 25 X s 2129 1024 m 25 X s 2129 1047 m 25 X s 2129 1066 m 25 X s 2129 1081 m 25 X s 2129 1094 m 25 X s 2129 1105 m 25 X s 2129 1114 m 25 X s 2103 1123 m 51 X s 2129 1181 m 25 X s 2129 1214 m 25 X s
 2129 1238 m 25 X s 2129 1256 m 25 X s 2129 1271 m 25 X s 2129 1284 m 25 X s 2129 1295 m 25 X s 2129 1305 m 25 X s 2103 1314 m 51 X s 2129 1371 m 25 X s 2129 1405 m 25 X s 2129 1429 m 25 X s 2129 1447 m 25 X s 2129 1462 m 25 X s
 gr  gr showpage
end
%%EOF
