%!PS-Adobe-2.0 EPSF-2.0
%%BoundingBox:  0 0 567 385
%%Title: figs_2016Jan25/jpsi_source_prompt.eps: c1
%%Creator: ROOT Version 6.04/02
%%CreationDate: Mon Jan 25 17:22:20 2016
%%DocumentNeededResources: ProcSet (FontSetInit)
%%EndComments
%%BeginProlog
80 dict begin
/s {stroke} def /l {lineto} def /m {moveto} def /t {translate} def
/r {rotate} def /rl {roll}  def /R {repeat} def
/d {rlineto} def /rm {rmoveto} def /gr {grestore} def /f {eofill} def
/c {setrgbcolor} def /black {0 setgray} def /sd {setdash} def
/cl {closepath} def /sf {scalefont setfont} def /lw {setlinewidth} def
/box {m dup 0 exch d exch 0 d 0 exch neg d cl} def
/NC{systemdict begin initclip end}def/C{NC box clip newpath}def
/bl {box s} def /bf {gsave box gsave f grestore 1 lw [] 0 sd s grestore} def /Y { 0 exch d} def /X { 0 d} def 
/K {{pop pop 0 moveto} exch kshow} bind def
/ita {/ang 15 def gsave [1 0 ang dup sin exch cos div 1 0 0] concat} def 
/mp {newpath /y exch def /x exch def} def
/side {[w .77 mul w .23 mul] .385 w mul sd w 0 l currentpoint t -144 r} def
/mr {mp x y w2 0 360 arc} def /m24 {mr s} def /m20 {mr f} def
/mb {mp x y w2 add m w2 neg 0 d 0 w neg d w 0 d 0 w d cl} def
/mt {mp x y w2 add m w2 neg w neg d w 0 d cl} def
/m21 {mb f} def /m25 {mb s} def /m22 {mt f} def /m26{mt s} def
/m23 {mp x y w2 sub m w2 w d w neg 0 d cl f} def
/m27 {mp x y w2 add m w3 neg w2 neg d w3 w2 neg d w3 w2 d cl s} def
/m28 {mp x w2 sub y w2 sub w3 add m w3 0 d  0 w3 neg d w3 0 d 0 w3 d w3 0 d  0 w3 d w3 neg 0 d 0 w3 d w3 neg 0 d 0 w3 neg d w3 neg 0 d cl s } def
/m29 {mp gsave x w2 sub y w2 add w3 sub m currentpoint t 4 {side} repeat cl fill gr} def
/m30 {mp gsave x w2 sub y w2 add w3 sub m currentpoint t 4 {side} repeat cl s gr} def
/m31 {mp x y w2 sub m 0 w d x w2 sub y m w 0 d x w2 sub y w2 add m w w neg d x w2 sub y w2 sub m w w d s} def
/m32 {mp x y w2 sub m w2 w d w neg 0 d cl s} def
/m33 {mp x y w2 add m w3 neg w2 neg d w3 w2 neg d w3 w2 d cl f} def
/m34 {mp x w2 sub y w2 sub w3 add m w3 0 d  0 w3 neg d w3 0 d 0 w3 d w3 0 d  0 w3 d w3 neg 0 d 0 w3 d w3 neg 0 d 0 w3 neg d w3 neg 0 d cl f } def
/m2 {mp x y w2 sub m 0 w d x w2 sub y m w 0 d s} def
/m5 {mp x w2 sub y w2 sub m w w d x w2 sub y w2 add m w w neg d s} def
%%IncludeResource: ProcSet (FontSetInit)
%%IncludeResource: font Times-Roman
%%IncludeResource: font Times-Italic
%%IncludeResource: font Times-Bold
%%IncludeResource: font Times-BoldItalic
%%IncludeResource: font Helvetica
%%IncludeResource: font Helvetica-Oblique
%%IncludeResource: font Helvetica-Bold
%%IncludeResource: font Helvetica-BoldOblique
%%IncludeResource: font Courier
%%IncludeResource: font Courier-Oblique
%%IncludeResource: font Courier-Bold
%%IncludeResource: font Courier-BoldOblique
%%IncludeResource: font Symbol
%%IncludeResource: font ZapfDingbats
/reEncode {exch findfont dup length dict begin {1 index /FID eq  {pop pop} {def} ifelse } forall /Encoding exch def currentdict end dup /FontName get exch definefont pop } def [/Times-Bold /Times-Italic /Times-BoldItalic /Helvetica /Helvetica-Oblique
 /Helvetica-Bold /Helvetica-BoldOblique /Courier /Courier-Oblique /Courier-Bold /Courier-BoldOblique /Times-Roman /AvantGarde-Book /AvantGarde-BookOblique /AvantGarde-Demi /AvantGarde-DemiOblique /Bookman-Demi /Bookman-DemiItalic /Bookman-Light
 /Bookman-LightItalic /Helvetica-Narrow /Helvetica-Narrow-Bold /Helvetica-Narrow-BoldOblique /Helvetica-Narrow-Oblique /NewCenturySchlbk-Roman /NewCenturySchlbk-Bold /NewCenturySchlbk-BoldItalic /NewCenturySchlbk-Italic /Palatino-Bold
 /Palatino-BoldItalic /Palatino-Italic /Palatino-Roman ] {ISOLatin1Encoding reEncode } forall
%%EndProlog
%%BeginSetup
%%EndSetup
newpath  gsave  .25 .25 scale  gsave  0 0 t black[  ] 0 sd 3 lw 1 1 1 c 2268 1540 0 0 bf black 1 1 1 c 1791 1155 363 308 bf black 1791 1155 363 308 bl 1 1 1 c 1791 1155 363 308 bf black 1791 1155 363 308 bl 6 lw 1 1 1 c black 363 1416 m 66 X -11 Y 67
 X -86 Y 66 X -76 Y 66 X -6 Y 67 X -17 Y 66 X -96 Y 133 X -12 Y 66 X -254 Y 66 X -12 Y 67 X -2 Y 66 X -3 Y 66 X -3 Y 67 X -107 Y 66 X -12 Y 133 X -113 Y 66 X -20 Y 67 X -45 Y 66 X -21 Y 66 X -9 Y 67 X -34 Y 66 X -16 Y 66 X -22 Y 67 X -29 Y 66 X -51 Y
 66 X s 3 lw 363 308 m 1791 X s
 gsave  2268 1540 0 0 C 1978.57 38.9865 t 0 r /Helvetica findfont 71.4753 sf 0 0 m (pdgId) show NC gr 
 gsave  2268 1540 0 0 C 412.607 103.964 t 90 r /Helvetica findfont 48.7332 sf 0 0 m (9940003) show NC gr 
 gsave  2268 1540 0 0 C 480.834 159.195 t 90 r /Helvetica findfont 48.7332 sf 0 0 m (20443) show NC gr 
 gsave  2268 1540 0 0 C 545.811 211.177 t 90 r /Helvetica findfont 48.7332 sf 0 0 m (445) show NC gr 
 gsave  2268 1540 0 0 C 614.038 129.955 t 90 r /Helvetica findfont 48.7332 sf 0 0 m (100443) show NC gr 
 gsave  2268 1540 0 0 C 679.015 103.964 t 90 r /Helvetica findfont 48.7332 sf 0 0 m (9942003) show NC gr 
 gsave  2268 1540 0 0 C 747.242 103.964 t 90 r /Helvetica findfont 48.7332 sf 0 0 m (9941003) show NC gr 
 gsave  2268 1540 0 0 C 812.219 165.693 t 90 r /Helvetica findfont 48.7332 sf 0 0 m (10441) show NC gr 
 gsave  2268 1540 0 0 C 877.197 266.408 t 90 r /Helvetica findfont 48.7332 sf 0 0 m (0) show NC gr 
 gsave  2268 1540 0 0 C 945.423 246.915 t 90 r /Helvetica findfont 48.7332 sf 0 0 m (21) show NC gr 
 gsave  2268 1540 0 0 C 1010.4 266.408 t 90 r /Helvetica findfont 48.7332 sf 0 0 m (4) show NC gr 
 gsave  2268 1540 0 0 C 1078.63 220.924 t 90 r /Helvetica findfont 48.7332 sf 0 0 m (521) show NC gr 
 gsave  2268 1540 0 0 C 1143.6 220.924 t 90 r /Helvetica findfont 48.7332 sf 0 0 m (511) show NC gr 
 gsave  2268 1540 0 0 C 1208.58 204.679 t 90 r /Helvetica findfont 48.7332 sf 0 0 m (\255511) show NC gr 
 gsave  2268 1540 0 0 C 1276.81 204.679 t 90 r /Helvetica findfont 48.7332 sf 0 0 m (\255521) show NC gr 
 gsave  2268 1540 0 0 C 1341.79 220.924 t 90 r /Helvetica findfont 48.7332 sf 0 0 m (531) show NC gr 
 gsave  2268 1540 0 0 C 1410.01 204.679 t 90 r /Helvetica findfont 48.7332 sf 0 0 m (\255531) show NC gr 
 gsave  2268 1540 0 0 C 1474.99 159.195 t 90 r /Helvetica findfont 48.7332 sf 0 0 m (30443) show NC gr 
 gsave  2268 1540 0 0 C 1543.22 168.942 t 90 r /Helvetica findfont 48.7332 sf 0 0 m (\2555122) show NC gr 
 gsave  2268 1540 0 0 C 1608.19 185.186 t 90 r /Helvetica findfont 48.7332 sf 0 0 m (5122) show NC gr 
 gsave  2268 1540 0 0 C 1673.17 220.924 t 90 r /Helvetica findfont 48.7332 sf 0 0 m (541) show NC gr 
 gsave  2268 1540 0 0 C 1741.4 168.942 t 90 r /Helvetica findfont 48.7332 sf 0 0 m (\2555132) show NC gr 
 gsave  2268 1540 0 0 C 1806.38 185.186 t 90 r /Helvetica findfont 48.7332 sf 0 0 m (5232) show NC gr 
 gsave  2268 1540 0 0 C 1874.6 185.186 t 90 r /Helvetica findfont 48.7332 sf 0 0 m (5132) show NC gr 
 gsave  2268 1540 0 0 C 1939.58 168.942 t 90 r /Helvetica findfont 48.7332 sf 0 0 m (\2555232) show NC gr 
 gsave  2268 1540 0 0 C 2007.81 204.679 t 90 r /Helvetica findfont 48.7332 sf 0 0 m (\255541) show NC gr 
 gsave  2268 1540 0 0 C 2072.78 159.195 t 90 r /Helvetica findfont 48.7332 sf 0 0 m (10443) show NC gr 
 gsave  2268 1540 0 0 C 2137.76 103.964 t 90 r /Helvetica findfont 48.7332 sf 0 0 m (9940103) show NC gr  363 344 m -36 Y s 429 344 m -36 Y s 496 344 m -36 Y s 562 344 m -36 Y s 628 344 m -36 Y s 695 344 m -36 Y s 761 344 m -36 Y s 827 344 m -36 Y s
 894 344 m -36 Y s 960 344 m -36 Y s 1026 344 m -36 Y s 1093 344 m -36 Y s 1159 344 m -36 Y s 1225 344 m -36 Y s 1292 344 m -36 Y s 1358 344 m -36 Y s 1424 344 m -36 Y s 1491 344 m -36 Y s 1557 344 m -36 Y s 1624 344 m -36 Y s 1690 344 m -36 Y s 1756
 344 m -36 Y s 1823 344 m -36 Y s 1889 344 m -36 Y s 1955 344 m -36 Y s 2022 344 m -36 Y s 2088 344 m -36 Y s 2154 344 m -36 Y s 363 1463 m 1791 X s 363 1426 m 37 Y s 429 1426 m 37 Y s 496 1426 m 37 Y s 562 1426 m 37 Y s 628 1426 m 37 Y s 695 1426 m
 37 Y s 761 1426 m 37 Y s 827 1426 m 37 Y s 894 1426 m 37 Y s 960 1426 m 37 Y s 1026 1426 m 37 Y s 1093 1426 m 37 Y s 1159 1426 m 37 Y s 1225 1426 m 37 Y s 1292 1426 m 37 Y s 1358 1426 m 37 Y s 1424 1426 m 37 Y s 1491 1426 m 37 Y s 1557 1426 m 37 Y s
 1624 1426 m 37 Y s 1690 1426 m 37 Y s 1756 1426 m 37 Y s 1823 1426 m 37 Y s 1889 1426 m 37 Y s 1955 1426 m 37 Y s 2022 1426 m 37 Y s 2088 1426 m 37 Y s 2154 1426 m 37 Y s 363 308 m 1155 Y s
 gsave  2268 1540 0 0 C 133.204 1211.83 t 90 r /Helvetica findfont 71.4753 sf 0 0 m (Fraction) show NC gr  388 350 m -25 X s 388 379 m -25 X s 388 401 m -25 X s 388 417 m -25 X s 388 430 m -25 X s 388 442 m -25 X s 388 451 m -25 X s 388 460 m -25 X s
 414 468 m -51 X s
 gsave  2268 1540 0 0 C 315.141 467.838 t 0 r /Helvetica findfont 48.7332 sf 0 0 m (6) show NC gr 
 gsave  2268 1540 0 0 C 289.15 467.838 t 0 r /Symbol findfont 48.7332 sf 0 0 m (-) show NC gr 
 gsave  2268 1540 0 0 C 211.177 435.35 t 0 r /Helvetica findfont 71.4753 sf 0 0 m (10) show NC gr  388 519 m -25 X s 388 548 m -25 X s 388 569 m -25 X s 388 586 m -25 X s 388 599 m -25 X s 388 611 m -25 X s 388 620 m -25 X s 388 629 m -25 X s 414 637
 m -51 X s
 gsave  2268 1540 0 0 C 315.141 636.78 t 0 r /Helvetica findfont 48.7332 sf 0 0 m (5) show NC gr 
 gsave  2268 1540 0 0 C 289.15 636.78 t 0 r /Symbol findfont 48.7332 sf 0 0 m (-) show NC gr 
 gsave  2268 1540 0 0 C 211.177 604.291 t 0 r /Helvetica findfont 71.4753 sf 0 0 m (10) show NC gr  388 688 m -25 X s 388 717 m -25 X s 388 738 m -25 X s 388 755 m -25 X s 388 768 m -25 X s 388 779 m -25 X s 388 789 m -25 X s 388 798 m -25 X s 414
 806 m -51 X s
 gsave  2268 1540 0 0 C 315.141 802.473 t 0 r /Helvetica findfont 48.7332 sf 0 0 m (4) show NC gr 
 gsave  2268 1540 0 0 C 289.15 802.473 t 0 r /Symbol findfont 48.7332 sf 0 0 m (-) show NC gr 
 gsave  2268 1540 0 0 C 211.177 773.233 t 0 r /Helvetica findfont 71.4753 sf 0 0 m (10) show NC gr  388 857 m -25 X s 388 886 m -25 X s 388 907 m -25 X s 388 924 m -25 X s 388 937 m -25 X s 388 948 m -25 X s 388 958 m -25 X s 388 967 m -25 X s 414
 975 m -51 X s
 gsave  2268 1540 0 0 C 315.141 974.663 t 0 r /Helvetica findfont 48.7332 sf 0 0 m (3) show NC gr 
 gsave  2268 1540 0 0 C 289.15 974.663 t 0 r /Symbol findfont 48.7332 sf 0 0 m (-) show NC gr 
 gsave  2268 1540 0 0 C 211.177 942.174 t 0 r /Helvetica findfont 71.4753 sf 0 0 m (10) show NC gr  388 1025 m -25 X s 388 1055 m -25 X s 388 1076 m -25 X s 388 1093 m -25 X s 388 1106 m -25 X s 388 1117 m -25 X s 388 1127 m -25 X s 388 1136 m -25 X
 s 414 1144 m -51 X s
 gsave  2268 1540 0 0 C 315.141 1140.36 t 0 r /Helvetica findfont 48.7332 sf 0 0 m (2) show NC gr 
 gsave  2268 1540 0 0 C 289.15 1140.36 t 0 r /Symbol findfont 48.7332 sf 0 0 m (-) show NC gr 
 gsave  2268 1540 0 0 C 211.177 1111.12 t 0 r /Helvetica findfont 71.4753 sf 0 0 m (10) show NC gr  388 1194 m -25 X s 388 1224 m -25 X s 388 1245 m -25 X s 388 1262 m -25 X s 388 1275 m -25 X s 388 1286 m -25 X s 388 1296 m -25 X s 388 1305 m -25 X
 s 414 1312 m -51 X s
 gsave  2268 1540 0 0 C 321.639 1309.3 t 0 r /Helvetica findfont 48.7332 sf 0 0 m (1) show NC gr 
 gsave  2268 1540 0 0 C 295.648 1309.3 t 0 r /Symbol findfont 48.7332 sf 0 0 m (-) show NC gr 
 gsave  2268 1540 0 0 C 217.675 1280.06 t 0 r /Helvetica findfont 71.4753 sf 0 0 m (10) show NC gr  388 1363 m -25 X s 388 1393 m -25 X s 388 1414 m -25 X s 388 1431 m -25 X s 388 1444 m -25 X s 388 1455 m -25 X s 2154 308 m 1155 Y s 2129 350 m 25 X
 s 2129 379 m 25 X s 2129 401 m 25 X s 2129 417 m 25 X s 2129 430 m 25 X s 2129 442 m 25 X s 2129 451 m 25 X s 2129 460 m 25 X s 2103 468 m 51 X s 2129 519 m 25 X s 2129 548 m 25 X s 2129 569 m 25 X s 2129 586 m 25 X s 2129 599 m 25 X s 2129 611 m 25
 X s 2129 620 m 25 X s 2129 629 m 25 X s 2103 637 m 51 X s 2129 688 m 25 X s 2129 717 m 25 X s 2129 738 m 25 X s 2129 755 m 25 X s 2129 768 m 25 X s 2129 779 m 25 X s 2129 789 m 25 X s 2129 798 m 25 X s 2103 806 m 51 X s 2129 857 m 25 X s 2129 886 m
 25 X s 2129 907 m 25 X s 2129 924 m 25 X s 2129 937 m 25 X s 2129 948 m 25 X s 2129 958 m 25 X s 2129 967 m 25 X s 2103 975 m 51 X s 2129 1025 m 25 X s 2129 1055 m 25 X s 2129 1076 m 25 X s 2129 1093 m 25 X s 2129 1106 m 25 X s 2129 1117 m 25 X s
 2129 1127 m 25 X s 2129 1136 m 25 X s 2103 1144 m 51 X s 2129 1194 m 25 X s 2129 1224 m 25 X s 2129 1245 m 25 X s 2129 1262 m 25 X s 2129 1275 m 25 X s 2129 1286 m 25 X s 2129 1296 m 25 X s 2129 1305 m 25 X s 2103 1312 m 51 X s 2129 1363 m 25 X s
 2129 1393 m 25 X s 2129 1414 m 25 X s 2129 1431 m 25 X s 2129 1444 m 25 X s 2129 1455 m 25 X s
 gr  gr showpage
end
%%EOF
