%!PS-Adobe-2.0 EPSF-2.0
%%BoundingBox:  0 0 567 385
%%Title: figs_2015Nov29/non_prompt_multi_mass.eps: c1
%%Creator: ROOT Version 6.04/02
%%CreationDate: Sun Nov 29 11:47:27 2015
%%DocumentNeededResources: ProcSet (FontSetInit)
%%EndComments
%%BeginProlog
80 dict begin
/s {stroke} def /l {lineto} def /m {moveto} def /t {translate} def
/r {rotate} def /rl {roll}  def /R {repeat} def
/d {rlineto} def /rm {rmoveto} def /gr {grestore} def /f {eofill} def
/c {setrgbcolor} def /black {0 setgray} def /sd {setdash} def
/cl {closepath} def /sf {scalefont setfont} def /lw {setlinewidth} def
/box {m dup 0 exch d exch 0 d 0 exch neg d cl} def
/NC{systemdict begin initclip end}def/C{NC box clip newpath}def
/bl {box s} def /bf {gsave box gsave f grestore 1 lw [] 0 sd s grestore} def /Y { 0 exch d} def /X { 0 d} def 
/K {{pop pop 0 moveto} exch kshow} bind def
/ita {/ang 15 def gsave [1 0 ang dup sin exch cos div 1 0 0] concat} def 
/mp {newpath /y exch def /x exch def} def
/side {[w .77 mul w .23 mul] .385 w mul sd w 0 l currentpoint t -144 r} def
/mr {mp x y w2 0 360 arc} def /m24 {mr s} def /m20 {mr f} def
/mb {mp x y w2 add m w2 neg 0 d 0 w neg d w 0 d 0 w d cl} def
/mt {mp x y w2 add m w2 neg w neg d w 0 d cl} def
/m21 {mb f} def /m25 {mb s} def /m22 {mt f} def /m26{mt s} def
/m23 {mp x y w2 sub m w2 w d w neg 0 d cl f} def
/m27 {mp x y w2 add m w3 neg w2 neg d w3 w2 neg d w3 w2 d cl s} def
/m28 {mp x w2 sub y w2 sub w3 add m w3 0 d  0 w3 neg d w3 0 d 0 w3 d w3 0 d  0 w3 d w3 neg 0 d 0 w3 d w3 neg 0 d 0 w3 neg d w3 neg 0 d cl s } def
/m29 {mp gsave x w2 sub y w2 add w3 sub m currentpoint t 4 {side} repeat cl fill gr} def
/m30 {mp gsave x w2 sub y w2 add w3 sub m currentpoint t 4 {side} repeat cl s gr} def
/m31 {mp x y w2 sub m 0 w d x w2 sub y m w 0 d x w2 sub y w2 add m w w neg d x w2 sub y w2 sub m w w d s} def
/m32 {mp x y w2 sub m w2 w d w neg 0 d cl s} def
/m33 {mp x y w2 add m w3 neg w2 neg d w3 w2 neg d w3 w2 d cl f} def
/m34 {mp x w2 sub y w2 sub w3 add m w3 0 d  0 w3 neg d w3 0 d 0 w3 d w3 0 d  0 w3 d w3 neg 0 d 0 w3 d w3 neg 0 d 0 w3 neg d w3 neg 0 d cl f } def
/m2 {mp x y w2 sub m 0 w d x w2 sub y m w 0 d s} def
/m5 {mp x w2 sub y w2 sub m w w d x w2 sub y w2 add m w w neg d s} def
%%IncludeResource: ProcSet (FontSetInit)
%%IncludeResource: font Times-Roman
%%IncludeResource: font Times-Italic
%%IncludeResource: font Times-Bold
%%IncludeResource: font Times-BoldItalic
%%IncludeResource: font Helvetica
%%IncludeResource: font Helvetica-Oblique
%%IncludeResource: font Helvetica-Bold
%%IncludeResource: font Helvetica-BoldOblique
%%IncludeResource: font Courier
%%IncludeResource: font Courier-Oblique
%%IncludeResource: font Courier-Bold
%%IncludeResource: font Courier-BoldOblique
%%IncludeResource: font Symbol
%%IncludeResource: font ZapfDingbats
/reEncode {exch findfont dup length dict begin {1 index /FID eq  {pop pop} {def} ifelse } forall /Encoding exch def currentdict end dup /FontName get exch definefont pop } def [/Times-Bold /Times-Italic /Times-BoldItalic /Helvetica /Helvetica-Oblique
 /Helvetica-Bold /Helvetica-BoldOblique /Courier /Courier-Oblique /Courier-Bold /Courier-BoldOblique /Times-Roman /AvantGarde-Book /AvantGarde-BookOblique /AvantGarde-Demi /AvantGarde-DemiOblique /Bookman-Demi /Bookman-DemiItalic /Bookman-Light
 /Bookman-LightItalic /Helvetica-Narrow /Helvetica-Narrow-Bold /Helvetica-Narrow-BoldOblique /Helvetica-Narrow-Oblique /NewCenturySchlbk-Roman /NewCenturySchlbk-Bold /NewCenturySchlbk-BoldItalic /NewCenturySchlbk-Italic /Palatino-Bold
 /Palatino-BoldItalic /Palatino-Italic /Palatino-Roman ] {ISOLatin1Encoding reEncode } forall
%%EndProlog
%%BeginSetup
%%EndSetup
newpath  gsave  .25 .25 scale  gsave  0 0 t black[  ] 0 sd 3 lw 1 1 1 c 2268 1540 0 0 bf black 1 1 1 c 1791 1155 363 308 bf black 1791 1155 363 308 bl 1 1 1 c 1791 1155 363 308 bf black 1791 1155 363 308 bl 363 308 m 1791 X s
 gsave  2268 1540 0 0 C 1894.1 113.711 t 0 r /Helvetica findfont 71.4753 sf 0 0 m (m [GeV]) show NC gr  526 344 m -36 Y s 607 326 m -18 Y s 689 326 m -18 Y s 770 326 m -18 Y s 851 344 m -36 Y s 933 326 m -18 Y s 1014 326 m -18 Y s 1096 326 m -18 Y s
 1177 344 m -36 Y s 1259 326 m -18 Y s 1340 326 m -18 Y s 1421 326 m -18 Y s 1503 344 m -36 Y s 1584 326 m -18 Y s 1666 326 m -18 Y s 1747 326 m -18 Y s 1829 344 m -36 Y s 1910 326 m -18 Y s 1991 326 m -18 Y s 2073 326 m -18 Y s 2154 344 m -36 Y s
 526 344 m -36 Y s 444 326 m -18 Y s 363 326 m -18 Y s 2154 344 m -36 Y s
 gsave  2268 1540 0 0 C 474.336 240.417 t 0 r /Helvetica findfont 71.4753 sf 0 0 m (2.6) show NC gr 
 gsave  2268 1540 0 0 C 802.473 240.417 t 0 r /Helvetica findfont 71.4753 sf 0 0 m (2.8) show NC gr 
 gsave  2268 1540 0 0 C 1156.6 240.417 t 0 r /Helvetica findfont 71.4753 sf 0 0 m (3) show NC gr 
 gsave  2268 1540 0 0 C 1452.25 240.417 t 0 r /Helvetica findfont 71.4753 sf 0 0 m (3.2) show NC gr 
 gsave  2268 1540 0 0 C 1777.14 240.417 t 0 r /Helvetica findfont 71.4753 sf 0 0 m (3.4) show NC gr 
 gsave  2268 1540 0 0 C 2105.27 240.417 t 0 r /Helvetica findfont 71.4753 sf 0 0 m (3.6) show NC gr  363 1463 m 1791 X s 526 1426 m 37 Y s 607 1445 m 18 Y s 689 1445 m 18 Y s 770 1445 m 18 Y s 851 1426 m 37 Y s 933 1445 m 18 Y s 1014 1445 m 18 Y s
 1096 1445 m 18 Y s 1177 1426 m 37 Y s 1259 1445 m 18 Y s 1340 1445 m 18 Y s 1421 1445 m 18 Y s 1503 1426 m 37 Y s 1584 1445 m 18 Y s 1666 1445 m 18 Y s 1747 1445 m 18 Y s 1829 1426 m 37 Y s 1910 1445 m 18 Y s 1991 1445 m 18 Y s 2073 1445 m 18 Y s
 2154 1426 m 37 Y s 526 1426 m 37 Y s 444 1445 m 18 Y s 363 1445 m 18 Y s 2154 1426 m 37 Y s 363 308 m 1155 Y s
 gsave  2268 1540 0 0 C 133.204 1189.09 t 90 r /Helvetica findfont 71.4753 sf 0 0 m ( Fraction) show NC gr  388 321 m -25 X s 388 353 m -25 X s 388 378 m -25 X s 388 399 m -25 X s 388 416 m -25 X s 388 431 m -25 X s 388 444 m -25 X s 414 456 m -51 X
 s
 gsave  2268 1540 0 0 C 315.141 454.843 t 0 r /Helvetica findfont 48.7332 sf 0 0 m (4) show NC gr 
 gsave  2268 1540 0 0 C 289.15 454.843 t 0 r /Symbol findfont 48.7332 sf 0 0 m (-) show NC gr 
 gsave  2268 1540 0 0 C 211.177 425.603 t 0 r /Helvetica findfont 71.4753 sf 0 0 m (10) show NC gr  388 534 m -25 X s 388 580 m -25 X s 388 612 m -25 X s 388 637 m -25 X s 388 657 m -25 X s 388 675 m -25 X s 388 690 m -25 X s 388 703 m -25 X s 414
 715 m -51 X s
 gsave  2268 1540 0 0 C 315.141 718.002 t 0 r /Helvetica findfont 48.7332 sf 0 0 m (3) show NC gr 
 gsave  2268 1540 0 0 C 289.15 718.002 t 0 r /Symbol findfont 48.7332 sf 0 0 m (-) show NC gr 
 gsave  2268 1540 0 0 C 211.177 685.513 t 0 r /Helvetica findfont 71.4753 sf 0 0 m (10) show NC gr  388 793 m -25 X s 388 838 m -25 X s 388 871 m -25 X s 388 896 m -25 X s 388 916 m -25 X s 388 934 m -25 X s 388 949 m -25 X s 388 962 m -25 X s 414
 974 m -51 X s
 gsave  2268 1540 0 0 C 315.141 971.414 t 0 r /Helvetica findfont 48.7332 sf 0 0 m (2) show NC gr 
 gsave  2268 1540 0 0 C 289.15 971.414 t 0 r /Symbol findfont 48.7332 sf 0 0 m (-) show NC gr 
 gsave  2268 1540 0 0 C 211.177 942.174 t 0 r /Helvetica findfont 71.4753 sf 0 0 m (10) show NC gr  388 1052 m -25 X s 388 1097 m -25 X s 388 1129 m -25 X s 388 1154 m -25 X s 388 1175 m -25 X s 388 1192 m -25 X s 388 1207 m -25 X s 388 1221 m -25 X
 s 414 1232 m -51 X s
 gsave  2268 1540 0 0 C 321.639 1231.32 t 0 r /Helvetica findfont 48.7332 sf 0 0 m (1) show NC gr 
 gsave  2268 1540 0 0 C 295.648 1231.32 t 0 r /Symbol findfont 48.7332 sf 0 0 m (-) show NC gr 
 gsave  2268 1540 0 0 C 217.675 1202.08 t 0 r /Helvetica findfont 71.4753 sf 0 0 m (10) show NC gr  388 1310 m -25 X s 388 1356 m -25 X s 388 1388 m -25 X s 388 1413 m -25 X s 388 1434 m -25 X s 388 1451 m -25 X s 2154 308 m 1155 Y s 2129 321 m 25 X
 s 2129 353 m 25 X s 2129 378 m 25 X s 2129 399 m 25 X s 2129 416 m 25 X s 2129 431 m 25 X s 2129 444 m 25 X s 2103 456 m 51 X s 2129 534 m 25 X s 2129 580 m 25 X s 2129 612 m 25 X s 2129 637 m 25 X s 2129 657 m 25 X s 2129 675 m 25 X s 2129 690 m 25
 X s 2129 703 m 25 X s 2103 715 m 51 X s 2129 793 m 25 X s 2129 838 m 25 X s 2129 871 m 25 X s 2129 896 m 25 X s 2129 916 m 25 X s 2129 934 m 25 X s 2129 949 m 25 X s 2129 962 m 25 X s 2103 974 m 51 X s 2129 1052 m 25 X s 2129 1097 m 25 X s 2129 1129
 m 25 X s 2129 1154 m 25 X s 2129 1175 m 25 X s 2129 1192 m 25 X s 2129 1207 m 25 X s 2129 1221 m 25 X s 2103 1232 m 51 X s 2129 1310 m 25 X s 2129 1356 m 25 X s 2129 1388 m 25 X s 2129 1413 m 25 X s 2129 1434 m 25 X s 2129 1451 m 25 X s 1 0 0 c 6 lw
 1 1 1 c 1 0 0 c 363 542 m 18 X 7 Y 18 X 2 Y 18 X 5 Y 17 X 9 Y 18 X 5 Y 18 X 1 Y 18 X 2 Y 18 X 13 Y 18 X -5 Y 18 X 12 Y 36 X 7 Y 18 X 12 Y 36 X 5 Y 17 X 10 Y 18 X 13 Y 18 X -6 Y 18 X 13 Y 18 X -7 Y 18 X 20 Y 18 X 5 Y 18 X 8 Y 18 X 3 Y 18 X 13 Y 18 X
 9 Y 18 X 7 Y 17 X 10 Y 18 X 10 Y 18 X 12 Y 18 X 20 Y 18 X 10 Y 18 X 10 Y 18 X 19 Y 18 X 16 Y 18 X 17 Y 18 X 21 Y 18 X 20 Y 18 X 24 Y 17 X 21 Y 18 X 23 Y 18 X 24 Y 18 X 25 Y 18 X 24 Y 18 X 26 Y 18 X 25 Y 18 X 27 Y 18 X 26 Y 18 X 24 Y 18 X 24 Y 17 X
 19 Y 18 X 14 Y 18 X 9 Y 36 X -7 Y 18 X -12 Y 18 X -19 Y 18 X -22 Y 18 X -25 Y 18 X -26 Y 18 X -28 Y 18 X -27 Y 17 X -27 Y 18 X -26 Y 18 X -27 Y 18 X -26 Y 18 X -28 Y 18 X -27 Y 18 X -16 Y 18 X -29 Y 18 X -23 Y 18 X -24 Y 18 X -24 Y 18 X -24 Y 17 X
 -20 Y 18 X -21 Y 18 X -17 Y 18 X -26 Y 18 X -22 Y 18 X -9 Y 18 X -25 Y 18 X -19 Y 18 X -17 Y 18 X -4 Y 18 X -23 Y 18 X -22 Y 17 X -14 Y 18 X -13 Y 18 X -27 Y 18 X -17 Y 18 X 8 Y 18 X -14 Y 18 X -21 Y 18 X -26 Y 18 X 33 Y 18 X -33 Y 18 X -22 Y 18 X
 -6 Y 17 X -2 Y 18 X s 0 1 0 c 1 1 1 c 0 1 0 c 363 550 m 18 X -10 Y 18 X 16 Y 18 X -5 Y 17 X 20 Y 18 X -1 Y 18 X -4 Y 18 X 14 Y 18 X 9 Y 18 X -8 Y 18 X 4 Y 18 X 1 Y 18 X 18 Y 18 X 7 Y 53 X 8 Y 18 X 15 Y 18 X 1 Y 18 X 2 Y 18 X 15 Y 18 X 1 Y 18 X 16 Y
 18 X 6 Y 36 X 11 Y 18 X 2 Y 18 X 18 Y 17 X 9 Y 18 X 7 Y 18 X 18 Y 18 X 11 Y 18 X 11 Y 18 X 19 Y 18 X 18 Y 18 X 16 Y 18 X 14 Y 18 X 25 Y 18 X 16 Y 18 X 23 Y 17 X 20 Y 18 X 26 Y 18 X 26 Y 18 X 19 Y 18 X 28 Y 18 X 26 Y 18 X 24 Y 18 X 27 Y 18 X 26 Y 18
 X 25 Y 18 X 23 Y 17 X 19 Y 18 X 14 Y 18 X 8 Y 18 X 1 Y 18 X -7 Y 18 X -12 Y 18 X -18 Y 18 X -23 Y 18 X -24 Y 18 X -27 Y 18 X -27 Y 18 X -28 Y 17 X -26 Y 18 X -26 Y 18 X -27 Y 18 X -28 Y 18 X -25 Y 18 X -27 Y 18 X -26 Y 18 X -21 Y 18 X -24 Y 18 X -20
 Y 18 X -22 Y 18 X -27 Y 17 X -19 Y 18 X -24 Y 18 X -25 Y 18 X -23 Y 18 X -15 Y 18 X -28 Y 18 X -4 Y 18 X -37 Y 18 X -7 Y 18 X -15 Y 18 X -16 Y 18 X -7 Y 17 X -32 Y 18 X -4 Y 18 X -36 Y 18 X -6 Y 18 X -7 Y 18 X -4 Y 18 X -41 Y 18 X 27 Y 18 X -23 Y 18
 X -41 Y 18 X 27 Y 18 X 7 Y 17 X -52 Y 18 X s 0 0 1 c 1 1 1 c 0 0 1 c 363 546 m 18 X -21 Y 18 X 20 Y 18 X -5 Y 35 X 20 Y 18 X 12 Y 18 X -5 Y 18 X 4 Y 18 X -3 Y 18 X 15 Y 18 X 12 Y 18 X 25 Y 18 X -20 Y 18 X 19 Y 18 X -6 Y 17 X 10 Y 18 X 9 Y 18 X -7 Y
 18 X -6 Y 18 X 29 Y 18 X 12 Y 18 X 8 Y 18 X -6 Y 18 X 9 Y 18 X -9 Y 18 X 31 Y 18 X 9 Y 17 X 5 Y 18 X 23 Y 18 X 15 Y 18 X 9 Y 18 X 16 Y 18 X 10 Y 18 X 17 Y 18 X 19 Y 18 X 19 Y 18 X 10 Y 18 X 21 Y 18 X 28 Y 17 X 23 Y 18 X 27 Y 18 X 18 Y 18 X 28 Y 18 X
 24 Y 18 X 25 Y 18 X 25 Y 18 X 29 Y 18 X 22 Y 18 X 24 Y 18 X 23 Y 17 X 19 Y 18 X 14 Y 18 X 8 Y 18 X 2 Y 18 X -7 Y 18 X -12 Y 18 X -19 Y 18 X -22 Y 18 X -23 Y 18 X -27 Y 18 X -28 Y 18 X -29 Y 17 X -25 Y 18 X -26 Y 18 X -26 Y 18 X -28 Y 18 X -23 Y 18 X
 -31 Y 18 X -20 Y 18 X -28 Y 18 X -23 Y 18 X -19 Y 18 X -21 Y 18 X -25 Y 17 X -20 Y 18 X -19 Y 18 X -25 Y 18 X -24 Y 18 X -24 Y 18 X -17 Y 18 X -17 Y 18 X -19 Y 18 X -6 Y 18 X -21 Y 18 X -6 Y 18 X -25 Y 17 X -3 Y 18 X -24 Y 18 X -12 Y 18 X -47 Y 18 X
 -38 Y 18 X 47 Y 18 X -23 Y 18 X -7 Y 18 X -26 Y 18 X 47 Y 18 X -103 Y 18 X -23 Y 35 X s 1 0 1 c 1 1 1 c 1 0 1 c 363 546 m 18 X -15 Y 18 X -4 Y 18 X 37 Y 17 X 5 Y 18 X -5 Y 18 X -7 Y 18 X 47 Y 18 X -6 Y 18 X -29 Y 18 X 6 Y 18 X 16 Y 18 X 5 Y 18 X 23
 Y 18 X -36 Y 18 X 39 Y 17 X -7 Y 18 X 23 Y 18 X -4 Y 18 X 17 Y 18 X 9 Y 18 X -12 Y 18 X 4 Y 18 X 6 Y 18 X 10 Y 18 X 18 Y 18 X -9 Y 18 X 30 Y 17 X 7 Y 18 X 9 Y 18 X 7 Y 18 X 23 Y 18 X 19 Y 18 X 6 Y 18 X 13 Y 18 X 26 Y 18 X 14 Y 18 X 23 Y 18 X 23 Y 18
 X 17 Y 17 X 18 Y 18 X 26 Y 18 X 26 Y 18 X 22 Y 18 X 26 Y 18 X 27 Y 18 X 25 Y 18 X 26 Y 18 X 28 Y 18 X 22 Y 18 X 22 Y 17 X 19 Y 18 X 15 Y 18 X 6 Y 18 X 2 Y 18 X -6 Y 18 X -13 Y 18 X -19 Y 18 X -22 Y 18 X -25 Y 18 X -24 Y 18 X -28 Y 18 X -24 Y 17 X
 -26 Y 18 X -28 Y 18 X -29 Y 18 X -26 Y 18 X -26 Y 18 X -28 Y 18 X -23 Y 18 X -24 Y 18 X -21 Y 18 X -24 Y 18 X -30 Y 18 X -24 Y 17 X -16 Y 18 X -16 Y 18 X -11 Y 18 X -36 Y 18 X -15 Y 18 X -12 Y 18 X -13 Y 18 X -37 Y 18 X -24 Y 36 X -27 Y 18 X 6 Y 17
 X -19 Y 18 X -40 Y 18 X -25 Y 18 X -5 Y 18 X 14 Y 18 X -36 Y 18 X 6 Y 18 X -40 Y 18 X -8 Y 18 X -19 Y 18 X 67 Y 18 X -90 Y 17 X 33 Y 18 X s black[  12 12 ] 0 sd 1 1 1 c black 363 536 m 18 X 38 Y 18 X -56 Y 18 X 47 Y 17 X 9 Y 18 X 6 Y 18 X 20 Y 18 X
 -49 Y 18 X 23 Y 18 X 26 Y 18 X 9 Y 18 X -19 Y 18 X 8 Y 18 X 15 Y 18 X 10 Y 18 X -7 Y 17 X 37 Y 18 X -40 Y 36 X 14 Y 18 X 28 Y 18 X 18 Y 18 X 3 Y 18 X -18 Y 18 X 28 Y 18 X 2 Y 18 X -10 Y 18 X 31 Y 17 X -12 Y 18 X 31 Y 18 X 13 Y 18 X 8 Y 18 X 21 Y 18
 X 24 Y 18 X 9 Y 18 X 14 Y 18 X 20 Y 18 X 6 Y 18 X 38 Y 18 X 10 Y 17 X 19 Y 18 X 28 Y 18 X 27 Y 18 X 17 Y 18 X 29 Y 18 X 30 Y 18 X 23 Y 18 X 28 Y 18 X 20 Y 18 X 29 Y 18 X 20 Y 17 X 21 Y 18 X 13 Y 18 X 9 Y 18 X -1 Y 18 X -6 Y 18 X -11 Y 18 X -19 Y 18
 X -20 Y 18 X -27 Y 18 X -24 Y 18 X -28 Y 18 X -29 Y 17 X -23 Y 18 X -33 Y 18 X -17 Y 18 X -29 Y 18 X -28 Y 18 X -19 Y 18 X -32 Y 18 X -20 Y 18 X -30 Y 18 X -31 Y 18 X -7 Y 18 X -37 Y 17 X -15 Y 18 X -23 Y 18 X -6 Y 18 X -13 Y 18 X -67 Y 18 X -24 Y
 18 X 15 Y 18 X -20 Y 18 X 8 Y 18 X -92 Y 18 X -6 Y 18 X -6 Y 17 X 12 Y 18 X -19 Y 18 X -78 Y 18 X -32 Y 18 X 68 Y 18 X -89 Y 18 X 98 Y 18 X 26 Y 18 X -58 Y 18 X -66 Y 18 X 53 Y 18 X -78 Y 35 X s 0 1 1 c[ 20 12 4 12] 0 sd 1 1 1 c 0 1 1 c 363 520 m 18
 X 39 Y 18 X -10 Y 18 X 15 Y 17 X -58 Y 18 X 43 Y 18 X 23 Y 18 X 20 Y 18 X -20 Y 18 X 23 Y 18 X -31 Y 18 X 41 Y 18 X -3 Y 18 X -14 Y 18 X 17 Y 18 X -10 Y 17 X 35 Y 18 X 12 Y 18 X -17 Y 18 X 37 Y 18 X -2 Y 18 X 13 Y 18 X -15 Y 18 X 11 Y 18 X 26 Y 18 X
 -14 Y 18 X 3 Y 18 X 16 Y 17 X 6 Y 18 X 26 Y 18 X 2 Y 18 X 26 Y 18 X -6 Y 18 X 13 Y 18 X 22 Y 18 X 18 Y 18 X 32 Y 18 X 7 Y 18 X 24 Y 18 X 20 Y 17 X 35 Y 18 X 9 Y 18 X 29 Y 18 X 24 Y 18 X 22 Y 18 X 29 Y 18 X 27 Y 18 X 26 Y 18 X 22 Y 18 X 24 Y 18 X 24
 Y 17 X 22 Y 18 X 14 Y 18 X 8 Y 36 X -7 Y 18 X -12 Y 18 X -18 Y 18 X -23 Y 18 X -24 Y 18 X -26 Y 18 X -26 Y 18 X -32 Y 17 X -22 Y 18 X -30 Y 18 X -30 Y 18 X -26 Y 18 X -30 Y 18 X -18 Y 18 X -12 Y 18 X -37 Y 18 X -32 Y 18 X -19 Y 18 X -13 Y 18 X -29 Y
 17 X -15 Y 18 X -31 Y 18 X -13 Y 18 X -9 Y 18 X -54 Y 18 X -3 Y 18 X -9 Y 18 X -21 Y 36 X -64 Y 18 X 7 Y 18 X -28 Y 17 X 7 Y 18 X -7 Y 18 X -63 Y 18 X 45 Y 18 X -78 Y 18 X 18 Y 18 X -38 Y 18 X -25 Y 36 X 63 Y 18 X -38 Y 18 X -75 Y 17 X 50 Y 18 X s
 0.35 0.83 0.33 c[ 80 20] 0 sd 1 1 1 c 0.35 0.83 0.33 c 363 910 m 18 X 11 Y 18 X -6 Y 18 X -7 Y 17 X 7 Y 18 X 3 Y 18 X 4 Y 18 X -5 Y 18 X -4 Y 18 X -6 Y 18 X 9 Y 18 X 4 Y 18 X 1 Y 18 X -2 Y 18 X 3 Y 18 X -10 Y 17 X 15 Y 18 X -1 Y 36 X -20 Y 18 X 5 Y
 18 X 8 Y 18 X 9 Y 18 X -8 Y 18 X -7 Y 18 X 14 Y 18 X -19 Y 18 X 5 Y 17 X 10 Y 18 X -1 Y 18 X 2 Y 36 X -11 Y 18 X 21 Y 18 X -4 Y 18 X -6 Y 18 X 8 Y 18 X -5 Y 18 X 15 Y 18 X -6 Y 17 X 3 Y 18 X 20 Y 18 X 3 Y 18 X 10 Y 18 X 15 Y 18 X 23 Y 18 X 20 Y 18 X
 8 Y 18 X 26 Y 18 X 17 Y 18 X 26 Y 17 X 9 Y 18 X 22 Y 18 X 10 Y 18 X -10 Y 18 X -11 Y 18 X -17 Y 18 X -19 Y 18 X -23 Y 18 X -26 Y 18 X -20 Y 18 X -15 Y 18 X -14 Y 17 X -22 Y 18 X -10 Y 18 X 1 Y 18 X -19 Y 18 X 5 Y 18 X -9 Y 18 X -29 Y 18 X 14 Y 18 X
 -6 Y 18 X 1 Y 18 X 9 Y 18 X -22 Y 17 X 13 Y 18 X -1 Y 18 X -14 Y 18 X 10 Y 18 X -8 Y 18 X -6 Y 18 X -1 Y 18 X 21 Y 18 X -27 Y 18 X 7 Y 18 X 3 Y 18 X -13 Y 17 X 9 Y 36 X -1 Y 18 X 1 Y 18 X 16 Y 18 X -8 Y 18 X -1 Y 36 X -3 Y 18 X -8 Y 18 X 5 Y 18 X 5
 Y 17 X -4 Y 18 X s black
 gsave  2268 1540 0 0 C 1708.91 1410.01 t 0 r /Helvetica-Bold findfont 45.4843 sf 0 0 m (B0) show NC gr  1 0 0 c[  ] 0 sd 1606 1421 m 87 X s black
 gsave  2268 1540 0 0 C 1708.91 1358.03 t 0 r /Helvetica-Bold findfont 45.4843 sf 0 0 m (B+) show NC gr  0 1 0 c 1606 1368 m 87 X s black
 gsave  2268 1540 0 0 C 1708.91 1306.05 t 0 r /Helvetica-Bold findfont 45.4843 sf 0 0 m (psi\(2S\)) show NC gr  0 0 1 c 1606 1316 m 87 X s black
 gsave  2268 1540 0 0 C 1708.91 1254.07 t 0 r /Helvetica-Bold findfont 45.4843 sf 0 0 m (chi_1c) show NC gr  1 0 1 c 1606 1263 m 87 X s black
 gsave  2268 1540 0 0 C 1708.91 1198.84 t 0 r /Helvetica-Bold findfont 45.4843 sf 0 0 m (B_s0) show NC gr [  12 12 ] 0 sd 1606 1210 m 87 X s
 gsave  2268 1540 0 0 C 1708.91 1146.85 t 0 r /Helvetica-Bold findfont 45.4843 sf 0 0 m (Lambda_bbar0) show NC gr  0 1 1 c[ 20 12 4 12] 0 sd 1606 1157 m 87 X s black
 gsave  2268 1540 0 0 C 1708.91 1094.87 t 0 r /Helvetica-Bold findfont 45.4843 sf 0 0 m (void) show NC gr  0.35 0.83 0.33 c[ 80 20] 0 sd 1606 1104 m 87 X s
 gr  gr showpage
end
%%EOF
