%!PS-Adobe-2.0 EPSF-2.0
%%BoundingBox:  0 0 567 385
%%Title: figs_2016Jan21/allSource_mu_ptvarcone30.eps: c1
%%Creator: ROOT Version 6.04/02
%%CreationDate: Thu Jan 21 18:41:11 2016
%%DocumentNeededResources: ProcSet (FontSetInit)
%%EndComments
%%BeginProlog
80 dict begin
/s {stroke} def /l {lineto} def /m {moveto} def /t {translate} def
/r {rotate} def /rl {roll}  def /R {repeat} def
/d {rlineto} def /rm {rmoveto} def /gr {grestore} def /f {eofill} def
/c {setrgbcolor} def /black {0 setgray} def /sd {setdash} def
/cl {closepath} def /sf {scalefont setfont} def /lw {setlinewidth} def
/box {m dup 0 exch d exch 0 d 0 exch neg d cl} def
/NC{systemdict begin initclip end}def/C{NC box clip newpath}def
/bl {box s} def /bf {gsave box gsave f grestore 1 lw [] 0 sd s grestore} def /Y { 0 exch d} def /X { 0 d} def 
/K {{pop pop 0 moveto} exch kshow} bind def
/ita {/ang 15 def gsave [1 0 ang dup sin exch cos div 1 0 0] concat} def 
/mp {newpath /y exch def /x exch def} def
/side {[w .77 mul w .23 mul] .385 w mul sd w 0 l currentpoint t -144 r} def
/mr {mp x y w2 0 360 arc} def /m24 {mr s} def /m20 {mr f} def
/mb {mp x y w2 add m w2 neg 0 d 0 w neg d w 0 d 0 w d cl} def
/mt {mp x y w2 add m w2 neg w neg d w 0 d cl} def
/m21 {mb f} def /m25 {mb s} def /m22 {mt f} def /m26{mt s} def
/m23 {mp x y w2 sub m w2 w d w neg 0 d cl f} def
/m27 {mp x y w2 add m w3 neg w2 neg d w3 w2 neg d w3 w2 d cl s} def
/m28 {mp x w2 sub y w2 sub w3 add m w3 0 d  0 w3 neg d w3 0 d 0 w3 d w3 0 d  0 w3 d w3 neg 0 d 0 w3 d w3 neg 0 d 0 w3 neg d w3 neg 0 d cl s } def
/m29 {mp gsave x w2 sub y w2 add w3 sub m currentpoint t 4 {side} repeat cl fill gr} def
/m30 {mp gsave x w2 sub y w2 add w3 sub m currentpoint t 4 {side} repeat cl s gr} def
/m31 {mp x y w2 sub m 0 w d x w2 sub y m w 0 d x w2 sub y w2 add m w w neg d x w2 sub y w2 sub m w w d s} def
/m32 {mp x y w2 sub m w2 w d w neg 0 d cl s} def
/m33 {mp x y w2 add m w3 neg w2 neg d w3 w2 neg d w3 w2 d cl f} def
/m34 {mp x w2 sub y w2 sub w3 add m w3 0 d  0 w3 neg d w3 0 d 0 w3 d w3 0 d  0 w3 d w3 neg 0 d 0 w3 d w3 neg 0 d 0 w3 neg d w3 neg 0 d cl f } def
/m2 {mp x y w2 sub m 0 w d x w2 sub y m w 0 d s} def
/m5 {mp x w2 sub y w2 sub m w w d x w2 sub y w2 add m w w neg d s} def
%%IncludeResource: ProcSet (FontSetInit)
%%IncludeResource: font Times-Roman
%%IncludeResource: font Times-Italic
%%IncludeResource: font Times-Bold
%%IncludeResource: font Times-BoldItalic
%%IncludeResource: font Helvetica
%%IncludeResource: font Helvetica-Oblique
%%IncludeResource: font Helvetica-Bold
%%IncludeResource: font Helvetica-BoldOblique
%%IncludeResource: font Courier
%%IncludeResource: font Courier-Oblique
%%IncludeResource: font Courier-Bold
%%IncludeResource: font Courier-BoldOblique
%%IncludeResource: font Symbol
%%IncludeResource: font ZapfDingbats
/reEncode {exch findfont dup length dict begin {1 index /FID eq  {pop pop} {def} ifelse } forall /Encoding exch def currentdict end dup /FontName get exch definefont pop } def [/Times-Bold /Times-Italic /Times-BoldItalic /Helvetica /Helvetica-Oblique
 /Helvetica-Bold /Helvetica-BoldOblique /Courier /Courier-Oblique /Courier-Bold /Courier-BoldOblique /Times-Roman /AvantGarde-Book /AvantGarde-BookOblique /AvantGarde-Demi /AvantGarde-DemiOblique /Bookman-Demi /Bookman-DemiItalic /Bookman-Light
 /Bookman-LightItalic /Helvetica-Narrow /Helvetica-Narrow-Bold /Helvetica-Narrow-BoldOblique /Helvetica-Narrow-Oblique /NewCenturySchlbk-Roman /NewCenturySchlbk-Bold /NewCenturySchlbk-BoldItalic /NewCenturySchlbk-Italic /Palatino-Bold
 /Palatino-BoldItalic /Palatino-Italic /Palatino-Roman ] {ISOLatin1Encoding reEncode } forall
%%EndProlog
%%BeginSetup
%%EndSetup
newpath  gsave  .25 .25 scale  gsave  0 0 t black[  ] 0 sd 3 lw 1 1 1 c 2268 1540 0 0 bf black 1 1 1 c 1791 1155 363 308 bf black 1791 1155 363 308 bl 1 1 1 c 1791 1155 363 308 bf black 1791 1155 363 308 bl 363 308 m 1791 X s
 gsave  2268 1540 0 0 C 1562.71 113.711 t 0 r /Helvetica findfont 71.4753 sf 0 0 m (ptvarcone30 [GeV]) show NC gr  363 344 m -36 Y s 399 326 m -18 Y s 434 326 m -18 Y s 470 326 m -18 Y s 506 326 m -18 Y s 542 344 m -36 Y s 578 326 m -18 Y s 614 326 m
 -18 Y s 649 326 m -18 Y s 685 326 m -18 Y s 721 344 m -36 Y s 757 326 m -18 Y s 793 326 m -18 Y s 829 326 m -18 Y s 864 326 m -18 Y s 900 344 m -36 Y s 936 326 m -18 Y s 972 326 m -18 Y s 1008 326 m -18 Y s 1044 326 m -18 Y s 1079 344 m -36 Y s 1115
 326 m -18 Y s 1151 326 m -18 Y s 1187 326 m -18 Y s 1223 326 m -18 Y s 1259 344 m -36 Y s 1294 326 m -18 Y s 1330 326 m -18 Y s 1366 326 m -18 Y s 1402 326 m -18 Y s 1438 344 m -36 Y s 1474 326 m -18 Y s 1509 326 m -18 Y s 1545 326 m -18 Y s 1581
 326 m -18 Y s 1617 344 m -36 Y s 1653 326 m -18 Y s 1689 326 m -18 Y s 1724 326 m -18 Y s 1760 326 m -18 Y s 1796 344 m -36 Y s 1832 326 m -18 Y s 1868 326 m -18 Y s 1904 326 m -18 Y s 1939 326 m -18 Y s 1975 344 m -36 Y s 2011 326 m -18 Y s 2047
 326 m -18 Y s 2083 326 m -18 Y s 2119 326 m -18 Y s 2154 344 m -36 Y s
 gsave  2268 1540 0 0 C 341.132 240.417 t 0 r /Helvetica findfont 71.4753 sf 0 0 m (0) show NC gr 
 gsave  2268 1540 0 0 C 526.318 240.417 t 0 r /Helvetica findfont 71.4753 sf 0 0 m (1) show NC gr 
 gsave  2268 1540 0 0 C 698.509 240.417 t 0 r /Helvetica findfont 71.4753 sf 0 0 m (2) show NC gr 
 gsave  2268 1540 0 0 C 880.446 240.417 t 0 r /Helvetica findfont 71.4753 sf 0 0 m (3) show NC gr 
 gsave  2268 1540 0 0 C 1059.13 240.417 t 0 r /Helvetica findfont 71.4753 sf 0 0 m (4) show NC gr 
 gsave  2268 1540 0 0 C 1237.82 240.417 t 0 r /Helvetica findfont 71.4753 sf 0 0 m (5) show NC gr 
 gsave  2268 1540 0 0 C 1416.51 240.417 t 0 r /Helvetica findfont 71.4753 sf 0 0 m (6) show NC gr 
 gsave  2268 1540 0 0 C 1595.2 240.417 t 0 r /Helvetica findfont 71.4753 sf 0 0 m (7) show NC gr 
 gsave  2268 1540 0 0 C 1773.89 240.417 t 0 r /Helvetica findfont 71.4753 sf 0 0 m (8) show NC gr 
 gsave  2268 1540 0 0 C 1952.58 240.417 t 0 r /Helvetica findfont 71.4753 sf 0 0 m (9) show NC gr 
 gsave  2268 1540 0 0 C 2115.02 240.417 t 0 r /Helvetica findfont 71.4753 sf 0 0 m (10) show NC gr  363 1463 m 1791 X s 363 1426 m 37 Y s 399 1445 m 18 Y s 434 1445 m 18 Y s 470 1445 m 18 Y s 506 1445 m 18 Y s 542 1426 m 37 Y s 578 1445 m 18 Y s 614
 1445 m 18 Y s 649 1445 m 18 Y s 685 1445 m 18 Y s 721 1426 m 37 Y s 757 1445 m 18 Y s 793 1445 m 18 Y s 829 1445 m 18 Y s 864 1445 m 18 Y s 900 1426 m 37 Y s 936 1445 m 18 Y s 972 1445 m 18 Y s 1008 1445 m 18 Y s 1044 1445 m 18 Y s 1079 1426 m 37 Y
 s 1115 1445 m 18 Y s 1151 1445 m 18 Y s 1187 1445 m 18 Y s 1223 1445 m 18 Y s 1259 1426 m 37 Y s 1294 1445 m 18 Y s 1330 1445 m 18 Y s 1366 1445 m 18 Y s 1402 1445 m 18 Y s 1438 1426 m 37 Y s 1474 1445 m 18 Y s 1509 1445 m 18 Y s 1545 1445 m 18 Y s
 1581 1445 m 18 Y s 1617 1426 m 37 Y s 1653 1445 m 18 Y s 1689 1445 m 18 Y s 1724 1445 m 18 Y s 1760 1445 m 18 Y s 1796 1426 m 37 Y s 1832 1445 m 18 Y s 1868 1445 m 18 Y s 1904 1445 m 18 Y s 1939 1445 m 18 Y s 1975 1426 m 37 Y s 2011 1445 m 18 Y s
 2047 1445 m 18 Y s 2083 1445 m 18 Y s 2119 1445 m 18 Y s 2154 1426 m 37 Y s 363 308 m 1155 Y s
 gsave  2268 1540 0 0 C 133.204 1189.09 t 90 r /Helvetica findfont 71.4753 sf 0 0 m ( Fraction) show NC gr  388 321 m -25 X s 414 333 m -51 X s
 gsave  2268 1540 0 0 C 315.141 331.386 t 0 r /Helvetica findfont 48.7332 sf 0 0 m (4) show NC gr 
 gsave  2268 1540 0 0 C 289.15 331.386 t 0 r /Symbol findfont 48.7332 sf 0 0 m (-) show NC gr 
 gsave  2268 1540 0 0 C 211.177 302.146 t 0 r /Helvetica findfont 71.4753 sf 0 0 m (10) show NC gr  388 416 m -25 X s 388 464 m -25 X s 388 498 m -25 X s 388 524 m -25 X s 388 546 m -25 X s 388 564 m -25 X s 388 580 m -25 X s 388 594 m -25 X s 414
 607 m -51 X s
 gsave  2268 1540 0 0 C 315.141 607.54 t 0 r /Helvetica findfont 48.7332 sf 0 0 m (3) show NC gr 
 gsave  2268 1540 0 0 C 289.15 607.54 t 0 r /Symbol findfont 48.7332 sf 0 0 m (-) show NC gr 
 gsave  2268 1540 0 0 C 211.177 575.051 t 0 r /Helvetica findfont 71.4753 sf 0 0 m (10) show NC gr  388 689 m -25 X s 388 737 m -25 X s 388 771 m -25 X s 388 798 m -25 X s 388 820 m -25 X s 388 838 m -25 X s 388 854 m -25 X s 388 868 m -25 X s 414
 880 m -51 X s
 gsave  2268 1540 0 0 C 315.141 877.197 t 0 r /Helvetica findfont 48.7332 sf 0 0 m (2) show NC gr 
 gsave  2268 1540 0 0 C 289.15 877.197 t 0 r /Symbol findfont 48.7332 sf 0 0 m (-) show NC gr 
 gsave  2268 1540 0 0 C 211.177 847.957 t 0 r /Helvetica findfont 71.4753 sf 0 0 m (10) show NC gr  388 963 m -25 X s 388 1011 m -25 X s 388 1045 m -25 X s 388 1071 m -25 X s 388 1093 m -25 X s 388 1111 m -25 X s 388 1127 m -25 X s 388 1141 m -25 X s
 414 1154 m -51 X s
 gsave  2268 1540 0 0 C 321.639 1153.35 t 0 r /Helvetica findfont 48.7332 sf 0 0 m (1) show NC gr 
 gsave  2268 1540 0 0 C 295.648 1153.35 t 0 r /Symbol findfont 48.7332 sf 0 0 m (-) show NC gr 
 gsave  2268 1540 0 0 C 217.675 1124.11 t 0 r /Helvetica findfont 71.4753 sf 0 0 m (10) show NC gr  388 1236 m -25 X s 388 1284 m -25 X s 388 1318 m -25 X s 388 1345 m -25 X s 388 1367 m -25 X s 388 1385 m -25 X s 388 1401 m -25 X s 388 1415 m -25 X
 s 414 1427 m -51 X s
 gsave  2268 1540 0 0 C 342.425 1397.3 t 0 r  -39 0 t /Helvetica findfont 71.4753 sf 0 0 m (1) show NC gr  2154 308 m 1155 Y s 2129 321 m 25 X s 2103 333 m 51 X s 2129 416 m 25 X s 2129 464 m 25 X s 2129 498 m 25 X s 2129 524 m 25 X s 2129 546 m 25 X
 s 2129 564 m 25 X s 2129 580 m 25 X s 2129 594 m 25 X s 2103 607 m 51 X s 2129 689 m 25 X s 2129 737 m 25 X s 2129 771 m 25 X s 2129 798 m 25 X s 2129 820 m 25 X s 2129 838 m 25 X s 2129 854 m 25 X s 2129 868 m 25 X s 2103 880 m 51 X s 2129 963 m 25
 X s 2129 1011 m 25 X s 2129 1045 m 25 X s 2129 1071 m 25 X s 2129 1093 m 25 X s 2129 1111 m 25 X s 2129 1127 m 25 X s 2129 1141 m 25 X s 2103 1154 m 51 X s 2129 1236 m 25 X s 2129 1284 m 25 X s 2129 1318 m 25 X s 2129 1345 m 25 X s 2129 1367 m 25 X
 s 2129 1385 m 25 X s 2129 1401 m 25 X s 2129 1415 m 25 X s 2103 1427 m 51 X s 1 0 0 c 6 lw 1 1 1 c 1 0 0 c 363 1401 m 18 X -1093 Y 161 X 670 Y 18 X -24 Y 18 X -22 Y 18 X -22 Y 18 X -20 Y 18 X -20 Y 17 X -20 Y 18 X -18 Y 18 X -19 Y 18 X -20 Y 18 X
 -12 Y 18 X -5 Y 18 X -10 Y 18 X -4 Y 18 X -9 Y 18 X -10 Y 18 X -8 Y 18 X -7 Y 17 X -12 Y 18 X -10 Y 18 X -10 Y 18 X -9 Y 18 X -11 Y 18 X -12 Y 18 X -8 Y 18 X -4 Y 18 X -10 Y 18 X -12 Y 18 X -8 Y 18 X -6 Y 17 X -7 Y 18 X -3 Y 18 X -10 Y 18 X -6 Y 18
 X -7 Y 18 X -5 Y 18 X -8 Y 18 X -2 Y 18 X -9 Y 18 X -7 Y 35 X -10 Y 18 X 1 Y 18 X 1 Y 18 X -10 Y 18 X -2 Y 18 X -3 Y 18 X -5 Y 36 X -4 Y 18 X 5 Y 18 X -5 Y 18 X -3 Y 17 X -5 Y 18 X 1 Y 18 X 2 Y 18 X -1 Y 18 X -2 Y 18 X 7 Y 18 X -5 Y 18 X 4 Y 18 X -2
 Y 18 X -4 Y 18 X 6 Y 18 X -1 Y 17 X 1 Y 18 X 1 Y 18 X -4 Y 18 X 9 Y 18 X -10 Y 18 X 11 Y 18 X -10 Y 18 X 5 Y 18 X 5 Y 18 X -2 Y 18 X 3 Y 18 X 5 Y 17 X -4 Y 18 X 1 Y 18 X 2 Y 18 X -4 Y 18 X 4 Y 18 X -1 Y 18 X -4 Y 18 X 4 Y 18 X -4 Y 18 X -2 Y 18 X 4
 Y 18 X 2 Y 17 X 2 Y 18 X s 0 1 0 c 1 1 1 c 0 1 0 c 363 1405 m 18 X -1097 Y 161 X 659 Y 18 X -24 Y 18 X -22 Y 18 X -20 Y 18 X -20 Y 18 X -20 Y 17 X -19 Y 18 X -21 Y 18 X -18 Y 18 X -18 Y 18 X -10 Y 18 X -8 Y 18 X -7 Y 18 X -10 Y 18 X -4 Y 18 X -12 Y
 18 X -11 Y 18 X -10 Y 17 X -7 Y 18 X -13 Y 18 X -9 Y 18 X -9 Y 18 X -11 Y 18 X -12 Y 18 X -10 Y 18 X -6 Y 18 X -9 Y 18 X -11 Y 18 X -10 Y 18 X -6 Y 17 X -5 Y 18 X -11 Y 18 X -8 Y 18 X -8 Y 18 X -6 Y 18 X -9 Y 18 X -13 Y 18 X -5 Y 18 X -8 Y 18 X -3 Y
 18 X -6 Y 17 X -7 Y 18 X -7 Y 18 X -2 Y 18 X -8 Y 18 X -4 Y 18 X -8 Y 18 X 1 Y 18 X -2 Y 18 X -2 Y 18 X -12 Y 18 X -5 Y 18 X -5 Y 17 X 3 Y 18 X -4 Y 18 X -8 Y 36 X -1 Y 18 X -2 Y 18 X -6 Y 18 X -3 Y 18 X 11 Y 18 X -8 Y 53 X 1 Y 36 X -1 Y 18 X -5 Y
 18 X -2 Y 18 X 5 Y 18 X -3 Y 18 X -1 Y 18 X 10 Y 18 X -1 Y 18 X -5 Y 18 X -5 Y 17 X 5 Y 36 X -11 Y 18 X 9 Y 18 X -3 Y 18 X 4 Y 18 X -3 Y 18 X 8 Y 18 X 2 Y 18 X -3 Y 18 X -10 Y 18 X 2 Y 17 X -1 Y 18 X s 0 0 1 c 1 1 1 c 0 0 1 c 363 1405 m 18 X -1097 Y
 161 X 659 Y 18 X -23 Y 18 X -22 Y 18 X -21 Y 18 X -20 Y 18 X -19 Y 17 X -22 Y 18 X -17 Y 18 X -20 Y 18 X -18 Y 18 X -12 Y 18 X -6 Y 18 X -5 Y 18 X -8 Y 18 X -9 Y 18 X -5 Y 18 X -15 Y 18 X -8 Y 17 X -11 Y 18 X -14 Y 18 X -7 Y 18 X -5 Y 18 X -14 Y 18
 X -8 Y 18 X -7 Y 18 X -2 Y 18 X -16 Y 18 X -18 Y 18 X -4 Y 18 X -6 Y 17 X -10 Y 18 X -9 Y 36 X -15 Y 18 X -18 Y 18 X -6 Y 18 X 9 Y 18 X -17 Y 18 X -7 Y 18 X -9 Y 18 X -7 Y 17 X 6 Y 18 X -29 Y 18 X 10 Y 18 X -8 Y 18 X -9 Y 18 X -8 Y 18 X 4 Y 18 X -1
 Y 18 X -16 Y 18 X -1 Y 18 X -1 Y 18 X -12 Y 17 X -6 Y 18 X -6 Y 18 X 8 Y 18 X -22 Y 18 X 23 Y 18 X -5 Y 18 X -8 Y 18 X -4 Y 18 X 1 Y 36 X -22 Y 18 X 27 Y 17 X -7 Y 18 X -13 Y 18 X -7 Y 18 X -1 Y 18 X 22 Y 18 X -9 Y 18 X -9 Y 18 X 24 Y 18 X 4 Y 18 X
 -28 Y 18 X -1 Y 18 X 7 Y 17 X 5 Y 18 X -23 Y 18 X 23 Y 18 X -14 Y 18 X 2 Y 18 X 4 Y 18 X -7 Y 18 X -19 Y 18 X 40 Y 18 X -18 Y 18 X -16 Y 18 X 22 Y 17 X -2 Y 18 X s 1 0 1 c 1 1 1 c 1 0 1 c 363 1378 m 18 X -1070 Y 161 X 701 Y 18 X -16 Y 18 X -16 Y 18
 X -15 Y 18 X -18 Y 18 X -15 Y 17 X -15 Y 18 X -13 Y 18 X -18 Y 18 X -15 Y 18 X -8 Y 18 X -3 Y 18 X -12 Y 18 X 3 Y 18 X -7 Y 18 X -2 Y 18 X -7 Y 18 X -10 Y 17 X -7 Y 18 X -10 Y 18 X -6 Y 18 X -6 Y 18 X -7 Y 18 X -5 Y 18 X -11 Y 18 X 1 Y 18 X -19 Y 18
 X -2 Y 18 X -12 Y 18 X -5 Y 17 X 3 Y 18 X -26 Y 18 X 11 Y 18 X -7 Y 18 X -14 Y 36 X -18 Y 18 X 1 Y 18 X -7 Y 18 X -16 Y 35 X -7 Y 36 X -20 Y 18 X -4 Y 18 X 2 Y 18 X -18 Y 18 X 2 Y 18 X -11 Y 18 X -25 Y 18 X 3 Y 18 X 11 Y 18 X -16 Y 17 X -6 Y 18 X
 -22 Y 18 X 22 Y 18 X -24 Y 18 X 7 Y 18 X -17 Y 18 X -19 Y 18 X 5 Y 18 X -1 Y 18 X -1 Y 18 X -19 Y 18 X -2 Y 17 X 12 Y 18 X 1 Y 18 X -35 Y 18 X 12 Y 18 X 1 Y 18 X 5 Y 18 X 15 Y 18 X -23 Y 18 X 13 Y 18 X 12 Y 18 X -38 Y 18 X 12 Y 17 X 4 Y 18 X -13 Y
 18 X 7 Y 18 X 13 Y 18 X -7 Y 18 X -10 Y 18 X 5 Y 18 X 9 Y 18 X -10 Y 18 X 1 Y 18 X 6 Y 18 X 1 Y 17 X 4 Y 18 X s black[  12 12 ] 0 sd 1 1 1 c black 363 1405 m 18 X -1097 Y 161 X 666 Y 18 X -22 Y 18 X -22 Y 18 X -24 Y 18 X -19 Y 18 X -21 Y 17 X -32 Y
 18 X -13 Y 18 X -19 Y 18 X -19 Y 18 X -19 Y 18 X 3 Y 18 X -7 Y 18 X -5 Y 18 X -16 Y 18 X -14 Y 18 X -5 Y 18 X -11 Y 17 X -3 Y 18 X -15 Y 18 X -11 Y 18 X -2 Y 18 X -16 Y 18 X -11 Y 18 X -11 Y 18 X -2 Y 18 X -11 Y 18 X -2 Y 18 X -16 Y 18 X -10 Y 17 X
 -13 Y 18 X -18 Y 18 X -1 Y 18 X -3 Y 18 X -1 Y 18 X -32 Y 18 X 8 Y 18 X -6 Y 18 X -1 Y 18 X -9 Y 18 X 2 Y 17 X -37 Y 18 X 1 Y 18 X -3 Y 18 X 11 Y 18 X -19 Y 18 X -32 Y 18 X 19 Y 18 X 8 Y 18 X -31 Y 18 X 20 Y 18 X -14 Y 18 X -5 Y 17 X -25 Y 18 X 8 Y
 18 X 39 Y 18 X -43 Y 18 X -13 Y 18 X -4 Y 18 X 24 Y 18 X -20 Y 18 X -27 Y 18 X 25 Y 18 X 8 Y 18 X -19 Y 17 X -2 Y 18 X 9 Y 18 X -3 Y 18 X -53 Y 18 X 73 Y 18 X -36 Y 18 X 25 Y 18 X -18 Y 18 X 9 Y 18 X -23 Y 18 X 5 Y 18 X 14 Y 17 X 9 Y 18 X -26 Y 18 X
 15 Y 18 X -26 Y 18 X 3 Y 18 X 20 Y 18 X 3 Y 18 X -12 Y 18 X -22 Y 18 X 11 Y 18 X -14 Y 18 X 25 Y 17 X -8 Y 18 X s 0 1 1 c[ 20 12 4 12] 0 sd 1 1 1 c 0 1 1 c 363 1405 m 18 X -1097 Y 161 X 663 Y 18 X -22 Y 18 X -19 Y 18 X -26 Y 18 X -18 Y 18 X -26 Y 17
 X -19 Y 18 X -20 Y 18 X -18 Y 18 X -15 Y 18 X -17 Y 18 X -11 Y 18 X -2 Y 18 X -1 Y 18 X -21 Y 18 X -3 Y 18 X -11 Y 18 X -9 Y 17 X -11 Y 18 X -4 Y 18 X -15 Y 18 X -3 Y 18 X -13 Y 18 X -18 Y 18 X 4 Y 18 X -11 Y 18 X -18 Y 18 X -16 Y 18 X 9 Y 18 X -20
 Y 17 X -4 Y 18 X -15 Y 18 X -4 Y 18 X -11 Y 18 X -14 Y 18 X -21 Y 18 X 12 Y 18 X 4 Y 18 X -9 Y 18 X -6 Y 18 X -21 Y 17 X -5 Y 18 X 16 Y 18 X -43 Y 18 X 26 Y 18 X -32 Y 18 X -2 Y 18 X 8 Y 18 X -30 Y 18 X 31 Y 18 X -33 Y 18 X 11 Y 18 X 3 Y 17 X -16 Y
 18 X -18 Y 18 X 6 Y 18 X -4 Y 18 X -12 Y 18 X 38 Y 18 X -43 Y 18 X 5 Y 18 X -12 Y 18 X 10 Y 18 X 22 Y 18 X 3 Y 17 X -3 Y 18 X -67 Y 18 X 45 Y 18 X 16 Y 18 X -14 Y 18 X -24 Y 18 X 36 Y 18 X -2 Y 18 X -40 Y 18 X 3 Y 18 X -13 Y 18 X 58 Y 17 X -25 Y 18
 X -3 Y 18 X -23 Y 18 X -42 Y 18 X 70 Y 18 X -2 Y 18 X -23 Y 36 X 30 Y 18 X -15 Y 18 X -25 Y 18 X 10 Y 17 X -17 Y 18 X s 0.8 0.8 0.8 c[ 20 12 4 12 4 12 4 12] 0 sd 1 1 1 c 0.8 0.8 0.8 c 363 1405 m 18 X -1097 Y 161 X 668 Y 18 X -24 Y 18 X -24 Y 18 X
 -17 Y 18 X -26 Y 18 X -17 Y 17 X -26 Y 18 X -19 Y 18 X -33 Y 18 X -2 Y 18 X -31 Y 18 X 11 Y 18 X -7 Y 18 X -13 Y 18 X -4 Y 18 X -10 Y 18 X -24 Y 35 X -3 Y 18 X -13 Y 18 X -24 Y 18 X -13 Y 18 X 1 Y 18 X -16 Y 18 X -28 Y 18 X 5 Y 36 X 4 Y 18 X -25 Y
 18 X 5 Y 17 X -15 Y 18 X 4 Y 18 X -27 Y 36 X 14 Y 18 X -28 Y 18 X -25 Y 18 X -11 Y 18 X -8 Y 18 X -12 Y 35 X 4 Y 18 X 8 Y 18 X -8 Y 18 X -48 Y 18 X 72 Y 18 X -11 Y 18 X -27 Y 18 X -56 Y 18 X 74 Y 18 X -23 Y 18 X -11 Y 18 X -12 Y 17 X -6 Y 18 X 12 Y
 18 X -12 Y 18 X 24 Y 18 X -31 Y 18 X -23 Y 36 X 16 Y 18 X -82 Y 18 X 74 Y 53 X -17 Y 18 X -31 Y 18 X 40 Y 18 X 23 Y 18 X 31 Y 18 X -31 Y 36 X 31 Y 18 X 5 Y 18 X -51 Y 18 X 8 Y 18 X 26 Y 35 X -12 Y 18 X -7 Y 18 X -23 Y 18 X -40 Y 18 X -12 Y 18 X 94 Y
 18 X -82 Y 18 X 76 Y 18 X -20 Y 18 X -8 Y 18 X 28 Y 17 X -28 Y 18 X s 0.35 0.83 0.33 c[ 80 20] 0 sd 1 1 1 c 0.35 0.83 0.33 c 363 1394 m 18 X -1086 Y 161 X 676 Y 18 X -21 Y 18 X -24 Y 18 X -21 Y 18 X -8 Y 18 X -27 Y 17 X -16 Y 18 X -10 Y 18 X -26 Y
 18 X -19 Y 18 X -9 Y 18 X -3 Y 18 X 5 Y 18 X -14 Y 18 X -6 Y 36 X -8 Y 18 X -21 Y 17 X -15 Y 18 X 5 Y 18 X -5 Y 18 X -26 Y 18 X 8 Y 18 X -21 Y 18 X -5 Y 18 X 24 Y 18 X -25 Y 18 X 3 Y 18 X -26 Y 18 X 4 Y 17 X 14 Y 18 X -17 Y 18 X 14 Y 18 X -13 Y 18 X
 -9 Y 18 X -33 Y 18 X 2 Y 18 X -5 Y 18 X 16 Y 18 X -24 Y 18 X 2 Y 17 X 5 Y 18 X -13 Y 18 X 23 Y 18 X -27 Y 18 X -12 Y 18 X 30 Y 18 X -39 Y 18 X -10 Y 18 X 26 Y 36 X -18 Y 35 X -2 Y 18 X -16 Y 18 X 27 Y 18 X -9 Y 18 X -26 Y 18 X 3 Y 18 X -11 Y 18 X 30
 Y 18 X -12 Y 18 X -7 Y 18 X -29 Y 18 X 15 Y 17 X 26 Y 18 X -17 Y 18 X -15 Y 36 X 3 Y 18 X -34 Y 18 X 28 Y 18 X 3 Y 18 X -16 Y 18 X 7 Y 18 X -76 Y 18 X 17 Y 17 X 49 Y 18 X -4 Y 18 X -12 Y 18 X 8 Y 18 X 8 Y 18 X 7 Y 18 X -27 Y 18 X 23 Y 18 X 19 Y 18 X
 -26 Y 18 X 17 Y 18 X -3 Y 17 X 12 Y 18 X s black
 gsave  2268 1540 0 0 C 1708.91 1416.51 t 0 r /Helvetica-Bold findfont 35.7377 sf 0 0 m (J/psi[3S1\(8\)]) show NC gr  1 0 0 c[  ] 0 sd 1606 1424 m 87 X s black
 gsave  2268 1540 0 0 C 1708.91 1371.03 t 0 r /Helvetica-Bold findfont 35.7377 sf 0 0 m (chi_1c) show NC gr  0 1 0 c 1606 1378 m 87 X s black
 gsave  2268 1540 0 0 C 1708.91 1322.29 t 0 r /Helvetica-Bold findfont 35.7377 sf 0 0 m (chi_2c) show NC gr  0 0 1 c 1606 1332 m 87 X s black
 gsave  2268 1540 0 0 C 1708.91 1276.81 t 0 r /Helvetica-Bold findfont 35.7377 sf 0 0 m (psi\(2S\)) show NC gr  1 0 1 c 1606 1286 m 87 X s black
 gsave  2268 1540 0 0 C 1708.91 1231.32 t 0 r /Helvetica-Bold findfont 35.7377 sf 0 0 m (J/psi[3PJ\(8\)]) show NC gr [  12 12 ] 0 sd 1606 1240 m 87 X s
 gsave  2268 1540 0 0 C 1708.91 1185.84 t 0 r /Helvetica-Bold findfont 35.7377 sf 0 0 m (J/psi[1S0\(8\)]) show NC gr  0 1 1 c[ 20 12 4 12] 0 sd 1606 1193 m 87 X s black
 gsave  2268 1540 0 0 C 1708.91 1137.11 t 0 r /Helvetica-Bold findfont 35.7377 sf 0 0 m (chi_0c) show NC gr  0.8 0.8 0.8 c[ 20 12 4 12 4 12 4 12] 0 sd 1606 1147 m 87 X s black
 gsave  2268 1540 0 0 C 1708.91 1091.62 t 0 r /Helvetica-Bold findfont 35.7377 sf 0 0 m (void) show NC gr  0.35 0.83 0.33 c[ 80 20] 0 sd 1606 1101 m 87 X s
 gr  gr showpage
end
%%EOF
