%!PS-Adobe-2.0 EPSF-2.0
%%BoundingBox:  0 0 567 385
%%Title: figs_2015Dec04/prompt_multi_mass.eps: c1
%%Creator: ROOT Version 6.04/02
%%CreationDate: Fri Dec  4 20:16:23 2015
%%DocumentNeededResources: ProcSet (FontSetInit)
%%EndComments
%%BeginProlog
80 dict begin
/s {stroke} def /l {lineto} def /m {moveto} def /t {translate} def
/r {rotate} def /rl {roll}  def /R {repeat} def
/d {rlineto} def /rm {rmoveto} def /gr {grestore} def /f {eofill} def
/c {setrgbcolor} def /black {0 setgray} def /sd {setdash} def
/cl {closepath} def /sf {scalefont setfont} def /lw {setlinewidth} def
/box {m dup 0 exch d exch 0 d 0 exch neg d cl} def
/NC{systemdict begin initclip end}def/C{NC box clip newpath}def
/bl {box s} def /bf {gsave box gsave f grestore 1 lw [] 0 sd s grestore} def /Y { 0 exch d} def /X { 0 d} def 
/K {{pop pop 0 moveto} exch kshow} bind def
/ita {/ang 15 def gsave [1 0 ang dup sin exch cos div 1 0 0] concat} def 
/mp {newpath /y exch def /x exch def} def
/side {[w .77 mul w .23 mul] .385 w mul sd w 0 l currentpoint t -144 r} def
/mr {mp x y w2 0 360 arc} def /m24 {mr s} def /m20 {mr f} def
/mb {mp x y w2 add m w2 neg 0 d 0 w neg d w 0 d 0 w d cl} def
/mt {mp x y w2 add m w2 neg w neg d w 0 d cl} def
/m21 {mb f} def /m25 {mb s} def /m22 {mt f} def /m26{mt s} def
/m23 {mp x y w2 sub m w2 w d w neg 0 d cl f} def
/m27 {mp x y w2 add m w3 neg w2 neg d w3 w2 neg d w3 w2 d cl s} def
/m28 {mp x w2 sub y w2 sub w3 add m w3 0 d  0 w3 neg d w3 0 d 0 w3 d w3 0 d  0 w3 d w3 neg 0 d 0 w3 d w3 neg 0 d 0 w3 neg d w3 neg 0 d cl s } def
/m29 {mp gsave x w2 sub y w2 add w3 sub m currentpoint t 4 {side} repeat cl fill gr} def
/m30 {mp gsave x w2 sub y w2 add w3 sub m currentpoint t 4 {side} repeat cl s gr} def
/m31 {mp x y w2 sub m 0 w d x w2 sub y m w 0 d x w2 sub y w2 add m w w neg d x w2 sub y w2 sub m w w d s} def
/m32 {mp x y w2 sub m w2 w d w neg 0 d cl s} def
/m33 {mp x y w2 add m w3 neg w2 neg d w3 w2 neg d w3 w2 d cl f} def
/m34 {mp x w2 sub y w2 sub w3 add m w3 0 d  0 w3 neg d w3 0 d 0 w3 d w3 0 d  0 w3 d w3 neg 0 d 0 w3 d w3 neg 0 d 0 w3 neg d w3 neg 0 d cl f } def
/m2 {mp x y w2 sub m 0 w d x w2 sub y m w 0 d s} def
/m5 {mp x w2 sub y w2 sub m w w d x w2 sub y w2 add m w w neg d s} def
%%IncludeResource: ProcSet (FontSetInit)
%%IncludeResource: font Times-Roman
%%IncludeResource: font Times-Italic
%%IncludeResource: font Times-Bold
%%IncludeResource: font Times-BoldItalic
%%IncludeResource: font Helvetica
%%IncludeResource: font Helvetica-Oblique
%%IncludeResource: font Helvetica-Bold
%%IncludeResource: font Helvetica-BoldOblique
%%IncludeResource: font Courier
%%IncludeResource: font Courier-Oblique
%%IncludeResource: font Courier-Bold
%%IncludeResource: font Courier-BoldOblique
%%IncludeResource: font Symbol
%%IncludeResource: font ZapfDingbats
/reEncode {exch findfont dup length dict begin {1 index /FID eq  {pop pop} {def} ifelse } forall /Encoding exch def currentdict end dup /FontName get exch definefont pop } def [/Times-Bold /Times-Italic /Times-BoldItalic /Helvetica /Helvetica-Oblique
 /Helvetica-Bold /Helvetica-BoldOblique /Courier /Courier-Oblique /Courier-Bold /Courier-BoldOblique /Times-Roman /AvantGarde-Book /AvantGarde-BookOblique /AvantGarde-Demi /AvantGarde-DemiOblique /Bookman-Demi /Bookman-DemiItalic /Bookman-Light
 /Bookman-LightItalic /Helvetica-Narrow /Helvetica-Narrow-Bold /Helvetica-Narrow-BoldOblique /Helvetica-Narrow-Oblique /NewCenturySchlbk-Roman /NewCenturySchlbk-Bold /NewCenturySchlbk-BoldItalic /NewCenturySchlbk-Italic /Palatino-Bold
 /Palatino-BoldItalic /Palatino-Italic /Palatino-Roman ] {ISOLatin1Encoding reEncode } forall
%%EndProlog
%%BeginSetup
%%EndSetup
newpath  gsave  .25 .25 scale  gsave  0 0 t black[  ] 0 sd 3 lw 1 1 1 c 2268 1540 0 0 bf black 1 1 1 c 1791 1155 363 308 bf black 1791 1155 363 308 bl 1 1 1 c 1791 1155 363 308 bf black 1791 1155 363 308 bl 363 308 m 1791 X s
 gsave  2268 1540 0 0 C 1894.1 113.711 t 0 r /Helvetica findfont 71.4753 sf 0 0 m (m [GeV]) show NC gr  526 344 m -36 Y s 607 326 m -18 Y s 689 326 m -18 Y s 770 326 m -18 Y s 851 344 m -36 Y s 933 326 m -18 Y s 1014 326 m -18 Y s 1096 326 m -18 Y s
 1177 344 m -36 Y s 1259 326 m -18 Y s 1340 326 m -18 Y s 1421 326 m -18 Y s 1503 344 m -36 Y s 1584 326 m -18 Y s 1666 326 m -18 Y s 1747 326 m -18 Y s 1829 344 m -36 Y s 1910 326 m -18 Y s 1991 326 m -18 Y s 2073 326 m -18 Y s 2154 344 m -36 Y s
 526 344 m -36 Y s 444 326 m -18 Y s 363 326 m -18 Y s 2154 344 m -36 Y s
 gsave  2268 1540 0 0 C 474.336 240.417 t 0 r /Helvetica findfont 71.4753 sf 0 0 m (2.6) show NC gr 
 gsave  2268 1540 0 0 C 802.473 240.417 t 0 r /Helvetica findfont 71.4753 sf 0 0 m (2.8) show NC gr 
 gsave  2268 1540 0 0 C 1156.6 240.417 t 0 r /Helvetica findfont 71.4753 sf 0 0 m (3) show NC gr 
 gsave  2268 1540 0 0 C 1452.25 240.417 t 0 r /Helvetica findfont 71.4753 sf 0 0 m (3.2) show NC gr 
 gsave  2268 1540 0 0 C 1777.14 240.417 t 0 r /Helvetica findfont 71.4753 sf 0 0 m (3.4) show NC gr 
 gsave  2268 1540 0 0 C 2105.27 240.417 t 0 r /Helvetica findfont 71.4753 sf 0 0 m (3.6) show NC gr  363 1463 m 1791 X s 526 1426 m 37 Y s 607 1445 m 18 Y s 689 1445 m 18 Y s 770 1445 m 18 Y s 851 1426 m 37 Y s 933 1445 m 18 Y s 1014 1445 m 18 Y s
 1096 1445 m 18 Y s 1177 1426 m 37 Y s 1259 1445 m 18 Y s 1340 1445 m 18 Y s 1421 1445 m 18 Y s 1503 1426 m 37 Y s 1584 1445 m 18 Y s 1666 1445 m 18 Y s 1747 1445 m 18 Y s 1829 1426 m 37 Y s 1910 1445 m 18 Y s 1991 1445 m 18 Y s 2073 1445 m 18 Y s
 2154 1426 m 37 Y s 526 1426 m 37 Y s 444 1445 m 18 Y s 363 1445 m 18 Y s 2154 1426 m 37 Y s 363 308 m 1155 Y s
 gsave  2268 1540 0 0 C 133.204 1189.09 t 90 r /Helvetica findfont 71.4753 sf 0 0 m ( Fraction) show NC gr  388 309 m -25 X s 388 342 m -25 X s 388 368 m -25 X s 388 389 m -25 X s 388 406 m -25 X s 388 422 m -25 X s 388 435 m -25 X s 414 447 m -51 X
 s
 gsave  2268 1540 0 0 C 315.141 445.096 t 0 r /Helvetica findfont 48.7332 sf 0 0 m (4) show NC gr 
 gsave  2268 1540 0 0 C 289.15 445.096 t 0 r /Symbol findfont 48.7332 sf 0 0 m (-) show NC gr 
 gsave  2268 1540 0 0 C 211.177 415.856 t 0 r /Helvetica findfont 71.4753 sf 0 0 m (10) show NC gr  388 527 m -25 X s 388 574 m -25 X s 388 607 m -25 X s 388 632 m -25 X s 388 653 m -25 X s 388 671 m -25 X s 388 686 m -25 X s 388 700 m -25 X s 414
 712 m -51 X s
 gsave  2268 1540 0 0 C 315.141 714.753 t 0 r /Helvetica findfont 48.7332 sf 0 0 m (3) show NC gr 
 gsave  2268 1540 0 0 C 289.15 714.753 t 0 r /Symbol findfont 48.7332 sf 0 0 m (-) show NC gr 
 gsave  2268 1540 0 0 C 211.177 682.264 t 0 r /Helvetica findfont 71.4753 sf 0 0 m (10) show NC gr  388 791 m -25 X s 388 838 m -25 X s 388 871 m -25 X s 388 897 m -25 X s 388 918 m -25 X s 388 935 m -25 X s 388 951 m -25 X s 388 964 m -25 X s 414
 976 m -51 X s
 gsave  2268 1540 0 0 C 315.141 974.663 t 0 r /Helvetica findfont 48.7332 sf 0 0 m (2) show NC gr 
 gsave  2268 1540 0 0 C 289.15 974.663 t 0 r /Symbol findfont 48.7332 sf 0 0 m (-) show NC gr 
 gsave  2268 1540 0 0 C 211.177 945.423 t 0 r /Helvetica findfont 71.4753 sf 0 0 m (10) show NC gr  388 1056 m -25 X s 388 1102 m -25 X s 388 1135 m -25 X s 388 1161 m -25 X s 388 1182 m -25 X s 388 1200 m -25 X s 388 1215 m -25 X s 388 1229 m -25 X
 s 414 1241 m -51 X s
 gsave  2268 1540 0 0 C 321.639 1237.82 t 0 r /Helvetica findfont 48.7332 sf 0 0 m (1) show NC gr 
 gsave  2268 1540 0 0 C 295.648 1237.82 t 0 r /Symbol findfont 48.7332 sf 0 0 m (-) show NC gr 
 gsave  2268 1540 0 0 C 217.675 1208.58 t 0 r /Helvetica findfont 71.4753 sf 0 0 m (10) show NC gr  388 1320 m -25 X s 388 1367 m -25 X s 388 1400 m -25 X s 388 1426 m -25 X s 388 1446 m -25 X s 2154 308 m 1155 Y s 2129 309 m 25 X s 2129 342 m 25 X s
 2129 368 m 25 X s 2129 389 m 25 X s 2129 406 m 25 X s 2129 422 m 25 X s 2129 435 m 25 X s 2103 447 m 51 X s 2129 527 m 25 X s 2129 574 m 25 X s 2129 607 m 25 X s 2129 632 m 25 X s 2129 653 m 25 X s 2129 671 m 25 X s 2129 686 m 25 X s 2129 700 m 25 X
 s 2103 712 m 51 X s 2129 791 m 25 X s 2129 838 m 25 X s 2129 871 m 25 X s 2129 897 m 25 X s 2129 918 m 25 X s 2129 935 m 25 X s 2129 951 m 25 X s 2129 964 m 25 X s 2103 976 m 51 X s 2129 1056 m 25 X s 2129 1102 m 25 X s 2129 1135 m 25 X s 2129 1161
 m 25 X s 2129 1182 m 25 X s 2129 1200 m 25 X s 2129 1215 m 25 X s 2129 1229 m 25 X s 2103 1241 m 51 X s 2129 1320 m 25 X s 2129 1367 m 25 X s 2129 1400 m 25 X s 2129 1426 m 25 X s 2129 1446 m 25 X s 1 0 0 c 6 lw 1 1 1 c 1 0 0 c 363 560 m 18 X -3 Y
 18 X 10 Y 18 X 9 Y 17 X -5 Y 18 X 11 Y 18 X 2 Y 18 X 3 Y 36 X 7 Y 18 X 5 Y 18 X 6 Y 18 X 6 Y 18 X 5 Y 18 X 5 Y 18 X 11 Y 17 X 2 Y 18 X 6 Y 18 X 8 Y 18 X 1 Y 18 X 8 Y 18 X 1 Y 18 X 9 Y 18 X 11 Y 18 X 10 Y 18 X 2 Y 18 X 10 Y 18 X 13 Y 17 X 8 Y 18 X 10
 Y 18 X 10 Y 18 X 11 Y 18 X 12 Y 18 X 16 Y 18 X 16 Y 18 X 15 Y 18 X 21 Y 18 X 17 Y 18 X 17 Y 18 X 21 Y 17 X 24 Y 18 X 22 Y 18 X 23 Y 18 X 26 Y 18 X 25 Y 18 X 26 Y 18 X 29 Y 18 X 28 Y 18 X 28 Y 18 X 28 Y 18 X 25 Y 17 X 22 Y 18 X 16 Y 18 X 9 Y 36 X -7
 Y 18 X -14 Y 18 X -22 Y 18 X -25 Y 18 X -28 Y 18 X -31 Y 18 X -29 Y 18 X -30 Y 17 X -30 Y 18 X -27 Y 18 X -27 Y 18 X -30 Y 18 X -23 Y 18 X -28 Y 18 X -24 Y 18 X -27 Y 18 X -19 Y 18 X -25 Y 18 X -26 Y 18 X -19 Y 17 X -22 Y 18 X -14 Y 18 X -24 Y 18 X
 -17 Y 18 X -21 Y 18 X -21 Y 18 X -19 Y 18 X -17 Y 18 X -13 Y 18 X -30 Y 18 X -10 Y 18 X -23 Y 17 X -10 Y 18 X -14 Y 18 X -12 Y 18 X -10 Y 18 X -21 Y 18 X -21 Y 18 X -4 Y 18 X -26 Y 18 X -18 Y 18 X 12 Y 18 X -15 Y 18 X -38 Y 17 X -11 Y 18 X s 0 1 0 c
 1 1 1 c 0 1 0 c 363 556 m 18 X 2 Y 18 X 6 Y 18 X 2 Y 17 X -1 Y 18 X 16 Y 18 X 2 Y 18 X 12 Y 18 X -8 Y 18 X 7 Y 18 X 7 Y 18 X 4 Y 18 X 2 Y 18 X 3 Y 18 X 5 Y 18 X 6 Y 17 X 6 Y 18 X 13 Y 18 X 5 Y 18 X 6 Y 18 X 5 Y 18 X 12 Y 18 X 1 Y 18 X 6 Y 18 X 11 Y
 18 X 3 Y 18 X 6 Y 18 X 11 Y 17 X 14 Y 18 X 6 Y 18 X 18 Y 18 X 10 Y 18 X 15 Y 18 X 10 Y 18 X 17 Y 18 X 16 Y 18 X 21 Y 18 X 14 Y 18 X 18 Y 18 X 22 Y 17 X 22 Y 18 X 24 Y 18 X 24 Y 18 X 24 Y 18 X 25 Y 18 X 27 Y 18 X 28 Y 18 X 28 Y 18 X 28 Y 18 X 28 Y 18
 X 26 Y 17 X 22 Y 18 X 16 Y 18 X 9 Y 18 X 1 Y 18 X -7 Y 18 X -15 Y 18 X -21 Y 18 X -26 Y 18 X -28 Y 18 X -29 Y 18 X -31 Y 18 X -30 Y 17 X -29 Y 18 X -30 Y 18 X -24 Y 18 X -29 Y 18 X -28 Y 18 X -25 Y 18 X -25 Y 18 X -23 Y 18 X -23 Y 18 X -22 Y 18 X
 -24 Y 18 X -24 Y 17 X -19 Y 18 X -21 Y 18 X -22 Y 18 X -20 Y 18 X -25 Y 18 X -7 Y 18 X -23 Y 18 X -23 Y 18 X -8 Y 18 X -35 Y 18 X 2 Y 18 X -27 Y 17 X -6 Y 18 X -22 Y 18 X -13 Y 18 X -11 Y 18 X -19 Y 18 X -14 Y 18 X 11 Y 18 X -40 Y 18 X -13 Y 18 X
 -19 Y 18 X 11 Y 18 X -18 Y 17 X 5 Y 18 X s 0 0 1 c 1 1 1 c 0 0 1 c 363 554 m 18 X 14 Y 18 X -23 Y 18 X 25 Y 17 X 1 Y 18 X -8 Y 18 X 23 Y 18 X -23 Y 18 X 22 Y 18 X 6 Y 18 X 4 Y 18 X 3 Y 18 X -14 Y 18 X 24 Y 18 X 7 Y 18 X 3 Y 17 X 8 Y 18 X 11 Y 18 X 4
 Y 18 X 11 Y 18 X 5 Y 18 X -7 Y 18 X 2 Y 18 X 20 Y 18 X 16 Y 36 X 1 Y 18 X 24 Y 17 X 4 Y 18 X 13 Y 18 X 8 Y 18 X 8 Y 18 X 20 Y 18 X 11 Y 18 X 15 Y 18 X 16 Y 18 X 22 Y 18 X 22 Y 18 X 18 Y 18 X 22 Y 17 X 20 Y 18 X 21 Y 18 X 26 Y 18 X 23 Y 18 X 23 Y 18
 X 28 Y 18 X 27 Y 18 X 31 Y 18 X 27 Y 18 X 26 Y 18 X 26 Y 17 X 22 Y 18 X 17 Y 18 X 8 Y 18 X 2 Y 18 X -7 Y 18 X -14 Y 18 X -22 Y 18 X -26 Y 18 X -29 Y 18 X -29 Y 18 X -30 Y 18 X -29 Y 17 X -30 Y 18 X -28 Y 18 X -31 Y 18 X -22 Y 18 X -32 Y 18 X -21 Y
 18 X -22 Y 18 X -28 Y 18 X -21 Y 18 X -24 Y 18 X -18 Y 18 X -35 Y 17 X -13 Y 18 X -23 Y 18 X -22 Y 18 X -25 Y 18 X -16 Y 36 X -40 Y 18 X -4 Y 18 X -3 Y 18 X -44 Y 18 X -17 Y 18 X -3 Y 17 X -26 Y 18 X 13 Y 18 X -52 Y 18 X -5 Y 18 X -68 Y 18 X 68 Y 18
 X -63 Y 18 X 4 Y 18 X 12 Y 18 X -79 Y 18 X 27 Y 18 X -13 Y 17 X 24 Y 18 X s 1 0 1 c 1 1 1 c 1 0 1 c 363 565 m 18 X -11 Y 18 X 11 Y 18 X -13 Y 17 X 8 Y 18 X 12 Y 18 X -7 Y 18 X -11 Y 18 X 44 Y 18 X -11 Y 18 X 31 Y 18 X -14 Y 18 X 20 Y 18 X -1 Y 18 X
 -6 Y 18 X 1 Y 17 X 5 Y 18 X 7 Y 18 X 7 Y 18 X 16 Y 18 X -10 Y 18 X 11 Y 18 X 21 Y 18 X -1 Y 18 X 5 Y 18 X 20 Y 18 X 3 Y 18 X -2 Y 17 X 21 Y 18 X -11 Y 18 X 38 Y 18 X 6 Y 18 X 19 Y 18 X 11 Y 18 X 11 Y 18 X 14 Y 18 X 27 Y 18 X 13 Y 18 X 11 Y 18 X 29 Y
 17 X 24 Y 18 X 19 Y 18 X 18 Y 18 X 32 Y 18 X 24 Y 18 X 30 Y 18 X 25 Y 18 X 26 Y 18 X 32 Y 18 X 27 Y 18 X 25 Y 17 X 22 Y 18 X 16 Y 18 X 7 Y 18 X 2 Y 18 X -7 Y 18 X -15 Y 18 X -20 Y 18 X -24 Y 18 X -29 Y 18 X -28 Y 18 X -34 Y 18 X -24 Y 17 X -35 Y 18
 X -27 Y 18 X -33 Y 18 X -26 Y 18 X -22 Y 18 X -26 Y 18 X -38 Y 18 X -15 Y 18 X -26 Y 18 X -31 Y 18 X -7 Y 18 X -22 Y 17 X -32 Y 18 X -11 Y 18 X -23 Y 18 X -7 Y 18 X -13 Y 18 X -31 Y 18 X -19 Y 18 X -21 Y 18 X -20 Y 18 X 24 Y 18 X -27 Y 18 X -61 Y 17
 X 43 Y 18 X -77 Y 18 X -46 Y 18 X 40 Y 18 X -40 Y 18 X 26 Y 18 X 7 Y 18 X -15 Y 18 X -28 Y 18 X -52 Y 18 X 52 Y 18 X -90 Y 35 X s black[  12 12 ] 0 sd 1 1 1 c black 363 533 m 18 X 36 Y 18 X -8 Y 18 X -43 Y 17 X 67 Y 18 X -2 Y 18 X -5 Y 18 X 20 Y 18
 X -13 Y 18 X 22 Y 18 X -5 Y 18 X -8 Y 18 X 11 Y 18 X 24 Y 18 X -13 Y 18 X 3 Y 17 X 18 Y 36 X -10 Y 18 X 12 Y 18 X 13 Y 18 X 11 Y 18 X -3 Y 18 X 26 Y 18 X 11 Y 18 X 5 Y 18 X 20 Y 18 X -11 Y 17 X 5 Y 18 X 14 Y 18 X 22 Y 18 X -2 Y 18 X 18 Y 18 X 14 Y
 18 X 21 Y 18 X 10 Y 18 X 21 Y 18 X 2 Y 18 X 32 Y 18 X 23 Y 17 X 20 Y 18 X 20 Y 18 X 25 Y 18 X 24 Y 18 X 27 Y 18 X 25 Y 18 X 30 Y 18 X 27 Y 18 X 28 Y 18 X 27 Y 18 X 26 Y 17 X 21 Y 18 X 18 Y 18 X 8 Y 18 X 2 Y 18 X -7 Y 18 X -14 Y 18 X -22 Y 18 X -28 Y
 18 X -24 Y 18 X -32 Y 18 X -25 Y 18 X -32 Y 17 X -31 Y 18 X -26 Y 18 X -38 Y 18 X -29 Y 18 X -18 Y 18 X -16 Y 18 X -33 Y 18 X -31 Y 18 X -22 Y 18 X -32 Y 18 X -10 Y 18 X -31 Y 17 X -35 Y 18 X 7 Y 18 X -19 Y 18 X -10 Y 18 X -26 Y 18 X -24 Y 18 X -30
 Y 18 X -41 Y 18 X -14 Y 18 X -8 Y 18 X -37 Y 18 X -11 Y 17 X 40 Y 18 X -24 Y 18 X -29 Y 18 X -7 Y 18 X -54 Y 18 X 46 Y 18 X -35 Y 18 X 43 Y 18 X -24 Y 18 X -42 Y 18 X -14 Y 18 X -62 Y 17 X 29 Y 18 X s 0 1 1 c[ 20 12 4 12] 0 sd 1 1 1 c 0 1 1 c 363
 560 m 36 X 3 Y 18 X 27 Y 17 X -53 Y 18 X 39 Y 18 X 17 Y 18 X -20 Y 18 X 27 Y 18 X -5 Y 18 X 21 Y 18 X 18 Y 18 X -2 Y 18 X -47 Y 18 X 5 Y 18 X 38 Y 17 X -21 Y 18 X 42 Y 18 X 8 Y 18 X -5 Y 18 X -1 Y 18 X 6 Y 18 X 18 Y 18 X 10 Y 18 X -2 Y 18 X 12 Y 18
 X 12 Y 18 X 2 Y 17 X 12 Y 18 X -7 Y 18 X 6 Y 18 X 40 Y 18 X -12 Y 18 X 31 Y 18 X 20 Y 18 X 13 Y 18 X 6 Y 18 X 36 Y 18 X 6 Y 18 X 27 Y 17 X 22 Y 18 X 32 Y 18 X 15 Y 18 X 24 Y 18 X 25 Y 18 X 32 Y 18 X 22 Y 18 X 27 Y 18 X 33 Y 18 X 28 Y 18 X 24 Y 17 X
 22 Y 18 X 16 Y 18 X 10 Y 18 X 1 Y 18 X -8 Y 18 X -14 Y 18 X -26 Y 18 X -23 Y 18 X -28 Y 18 X -25 Y 18 X -36 Y 18 X -29 Y 17 X -29 Y 18 X -30 Y 18 X -24 Y 18 X -28 Y 18 X -23 Y 18 X -31 Y 18 X -25 Y 18 X -28 Y 18 X -10 Y 18 X -35 Y 18 X -19 Y 18 X -4
 Y 17 X -49 Y 18 X -24 Y 18 X -15 Y 18 X -16 Y 18 X -7 Y 18 X -10 Y 18 X -64 Y 18 X 25 Y 18 X -57 Y 18 X -10 Y 18 X -49 Y 18 X 7 Y 17 X -33 Y 18 X 18 Y 18 X 62 Y 18 X -141 Y 18 X 51 Y 18 X 10 Y 18 X -135 Y 18 X 125 Y 18 X -51 Y 18 X -74 Y 18 X 56 Y
 18 X 69 Y 17 X -116 Y 18 X s 0.8 0.8 0.8 c[ 20 12 4 12 4 12 4 12] 0 sd 1 1 1 c 0.8 0.8 0.8 c 363 531 m 18 X 41 Y 18 X 11 Y 18 X -23 Y 17 X 33 Y 18 X -21 Y 18 X -41 Y 18 X 52 Y 18 X -70 Y 18 X 70 Y 18 X 10 Y 18 X 25 Y 36 X 8 Y 18 X -43 Y 18 X 56 Y 17
 X -37 Y 18 X 9 Y 18 X 66 Y 18 X -44 Y 18 X 44 Y 36 X 5 Y 18 X -14 Y 18 X 26 Y 18 X 25 Y 18 X -21 Y 18 X -30 Y 17 X 63 Y 18 X 16 Y 18 X -19 Y 18 X 35 Y 18 X 24 Y 18 X -21 Y 18 X 34 Y 18 X 24 Y 18 X 19 Y 18 X 6 Y 18 X 27 Y 18 X 12 Y 17 X 25 Y 18 X 11
 Y 18 X 28 Y 18 X 21 Y 18 X 38 Y 18 X 25 Y 18 X 23 Y 18 X 35 Y 18 X 24 Y 18 X 26 Y 18 X 17 Y 17 X 33 Y 18 X 18 Y 18 X 7 Y 18 X -2 Y 18 X -7 Y 18 X -14 Y 18 X -17 Y 18 X -28 Y 18 X -32 Y 18 X -26 Y 18 X -32 Y 18 X -20 Y 17 X -37 Y 18 X -33 Y 18 X -12
 Y 18 X -39 Y 18 X -19 Y 18 X -41 Y 18 X -32 Y 18 X -6 Y 18 X -39 Y 18 X 19 Y 18 X -57 Y 18 X -17 Y 17 X -26 Y 18 X -34 Y 18 X 4 Y 18 X -21 Y 18 X -40 Y 18 X -51 Y 36 X -29 Y 18 X 15 Y 18 X -112 Y 18 X 97 Y 18 X -39 Y 35 X 68 Y 18 X -126 Y 18 X -47 Y
 18 X 47 Y 18 X -126 Y 18 X 159 Y 18 X -80 Y 18 X -79 Y 18 X 79 Y 18 X -79 Y 18 X 205 Y 17 X -21 Y 18 X s 0.35 0.83 0.33 c[ 80 20] 0 sd 1 1 1 c 0.35 0.83 0.33 c 363 855 m 18 X -32 Y 18 X 35 Y 18 X -5 Y 17 X -3 Y 18 X -7 Y 18 X 33 Y 18 X -11 Y 18 X 1
 Y 18 X -6 Y 18 X 3 Y 18 X 29 Y 18 X -24 Y 18 X -5 Y 18 X -7 Y 18 X 8 Y 17 X 1 Y 18 X 6 Y 18 X -10 Y 36 X 24 Y 18 X -17 Y 18 X 4 Y 18 X 9 Y 18 X -3 Y 18 X 4 Y 18 X -7 Y 18 X -2 Y 17 X 26 Y 18 X -12 Y 18 X 8 Y 18 X 7 Y 18 X -27 Y 18 X 15 Y 18 X 24 Y
 18 X -3 Y 18 X 14 Y 36 X 10 Y 18 X -4 Y 17 X 21 Y 18 X 1 Y 18 X 23 Y 18 X 6 Y 18 X 25 Y 18 X 18 Y 18 X 13 Y 18 X 26 Y 18 X 28 Y 18 X 23 Y 18 X 15 Y 17 X 22 Y 18 X 15 Y 54 X -8 Y 18 X -13 Y 18 X -25 Y 18 X -27 Y 18 X -22 Y 18 X -21 Y 18 X -16 Y 18 X
 -27 Y 17 X -5 Y 18 X -20 Y 18 X -12 Y 18 X -17 Y 18 X -4 Y 18 X -12 Y 18 X -14 Y 18 X -8 Y 18 X 4 Y 18 X -29 Y 18 X 15 Y 18 X 8 Y 17 X -24 Y 18 X 5 Y 18 X -12 Y 18 X -4 Y 18 X 11 Y 18 X -37 Y 18 X 12 Y 18 X 10 Y 18 X -11 Y 18 X 6 Y 18 X 10 Y 18 X -8
 Y 17 X -1 Y 18 X -2 Y 18 X -3 Y 18 X 9 Y 18 X -8 Y 18 X -1 Y 18 X -9 Y 18 X -10 Y 18 X 5 Y 18 X 28 Y 18 X 3 Y 18 X -25 Y 17 X 8 Y 18 X s black
 gsave  2268 1540 0 0 C 1708.91 1416.51 t 0 r /Helvetica-Bold findfont 35.7377 sf 0 0 m (J/psi[3S1\(8\)]) show NC gr  1 0 0 c[  ] 0 sd 1606 1424 m 87 X s black
 gsave  2268 1540 0 0 C 1708.91 1371.03 t 0 r /Helvetica-Bold findfont 35.7377 sf 0 0 m (chi_1c) show NC gr  0 1 0 c 1606 1378 m 87 X s black
 gsave  2268 1540 0 0 C 1708.91 1322.29 t 0 r /Helvetica-Bold findfont 35.7377 sf 0 0 m (chi_2c) show NC gr  0 0 1 c 1606 1332 m 87 X s black
 gsave  2268 1540 0 0 C 1708.91 1276.81 t 0 r /Helvetica-Bold findfont 35.7377 sf 0 0 m (psi\(2S\)) show NC gr  1 0 1 c 1606 1286 m 87 X s black
 gsave  2268 1540 0 0 C 1708.91 1231.32 t 0 r /Helvetica-Bold findfont 35.7377 sf 0 0 m (J/psi[3PJ\(8\)]) show NC gr [  12 12 ] 0 sd 1606 1240 m 87 X s
 gsave  2268 1540 0 0 C 1708.91 1185.84 t 0 r /Helvetica-Bold findfont 35.7377 sf 0 0 m (J/psi[1S0\(8\)]) show NC gr  0 1 1 c[ 20 12 4 12] 0 sd 1606 1193 m 87 X s black
 gsave  2268 1540 0 0 C 1708.91 1137.11 t 0 r /Helvetica-Bold findfont 35.7377 sf 0 0 m (chi_0c) show NC gr  0.8 0.8 0.8 c[ 20 12 4 12 4 12 4 12] 0 sd 1606 1147 m 87 X s black
 gsave  2268 1540 0 0 C 1708.91 1091.62 t 0 r /Helvetica-Bold findfont 35.7377 sf 0 0 m (void) show NC gr  0.35 0.83 0.33 c[ 80 20] 0 sd 1606 1101 m 87 X s
 gr  gr showpage
end
%%EOF
