%!PS-Adobe-2.0 EPSF-2.0
%%BoundingBox:  0 0 567 385
%%Title: figs_2016Jan21/allSource_jpsi_eta.eps: c1
%%Creator: ROOT Version 6.04/02
%%CreationDate: Thu Jan 21 18:26:02 2016
%%DocumentNeededResources: ProcSet (FontSetInit)
%%EndComments
%%BeginProlog
80 dict begin
/s {stroke} def /l {lineto} def /m {moveto} def /t {translate} def
/r {rotate} def /rl {roll}  def /R {repeat} def
/d {rlineto} def /rm {rmoveto} def /gr {grestore} def /f {eofill} def
/c {setrgbcolor} def /black {0 setgray} def /sd {setdash} def
/cl {closepath} def /sf {scalefont setfont} def /lw {setlinewidth} def
/box {m dup 0 exch d exch 0 d 0 exch neg d cl} def
/NC{systemdict begin initclip end}def/C{NC box clip newpath}def
/bl {box s} def /bf {gsave box gsave f grestore 1 lw [] 0 sd s grestore} def /Y { 0 exch d} def /X { 0 d} def 
/K {{pop pop 0 moveto} exch kshow} bind def
/ita {/ang 15 def gsave [1 0 ang dup sin exch cos div 1 0 0] concat} def 
/mp {newpath /y exch def /x exch def} def
/side {[w .77 mul w .23 mul] .385 w mul sd w 0 l currentpoint t -144 r} def
/mr {mp x y w2 0 360 arc} def /m24 {mr s} def /m20 {mr f} def
/mb {mp x y w2 add m w2 neg 0 d 0 w neg d w 0 d 0 w d cl} def
/mt {mp x y w2 add m w2 neg w neg d w 0 d cl} def
/m21 {mb f} def /m25 {mb s} def /m22 {mt f} def /m26{mt s} def
/m23 {mp x y w2 sub m w2 w d w neg 0 d cl f} def
/m27 {mp x y w2 add m w3 neg w2 neg d w3 w2 neg d w3 w2 d cl s} def
/m28 {mp x w2 sub y w2 sub w3 add m w3 0 d  0 w3 neg d w3 0 d 0 w3 d w3 0 d  0 w3 d w3 neg 0 d 0 w3 d w3 neg 0 d 0 w3 neg d w3 neg 0 d cl s } def
/m29 {mp gsave x w2 sub y w2 add w3 sub m currentpoint t 4 {side} repeat cl fill gr} def
/m30 {mp gsave x w2 sub y w2 add w3 sub m currentpoint t 4 {side} repeat cl s gr} def
/m31 {mp x y w2 sub m 0 w d x w2 sub y m w 0 d x w2 sub y w2 add m w w neg d x w2 sub y w2 sub m w w d s} def
/m32 {mp x y w2 sub m w2 w d w neg 0 d cl s} def
/m33 {mp x y w2 add m w3 neg w2 neg d w3 w2 neg d w3 w2 d cl f} def
/m34 {mp x w2 sub y w2 sub w3 add m w3 0 d  0 w3 neg d w3 0 d 0 w3 d w3 0 d  0 w3 d w3 neg 0 d 0 w3 d w3 neg 0 d 0 w3 neg d w3 neg 0 d cl f } def
/m2 {mp x y w2 sub m 0 w d x w2 sub y m w 0 d s} def
/m5 {mp x w2 sub y w2 sub m w w d x w2 sub y w2 add m w w neg d s} def
%%IncludeResource: ProcSet (FontSetInit)
%%IncludeResource: font Times-Roman
%%IncludeResource: font Times-Italic
%%IncludeResource: font Times-Bold
%%IncludeResource: font Times-BoldItalic
%%IncludeResource: font Helvetica
%%IncludeResource: font Helvetica-Oblique
%%IncludeResource: font Helvetica-Bold
%%IncludeResource: font Helvetica-BoldOblique
%%IncludeResource: font Courier
%%IncludeResource: font Courier-Oblique
%%IncludeResource: font Courier-Bold
%%IncludeResource: font Courier-BoldOblique
%%IncludeResource: font Symbol
%%IncludeResource: font ZapfDingbats
/reEncode {exch findfont dup length dict begin {1 index /FID eq  {pop pop} {def} ifelse } forall /Encoding exch def currentdict end dup /FontName get exch definefont pop } def [/Times-Bold /Times-Italic /Times-BoldItalic /Helvetica /Helvetica-Oblique
 /Helvetica-Bold /Helvetica-BoldOblique /Courier /Courier-Oblique /Courier-Bold /Courier-BoldOblique /Times-Roman /AvantGarde-Book /AvantGarde-BookOblique /AvantGarde-Demi /AvantGarde-DemiOblique /Bookman-Demi /Bookman-DemiItalic /Bookman-Light
 /Bookman-LightItalic /Helvetica-Narrow /Helvetica-Narrow-Bold /Helvetica-Narrow-BoldOblique /Helvetica-Narrow-Oblique /NewCenturySchlbk-Roman /NewCenturySchlbk-Bold /NewCenturySchlbk-BoldItalic /NewCenturySchlbk-Italic /Palatino-Bold
 /Palatino-BoldItalic /Palatino-Italic /Palatino-Roman ] {ISOLatin1Encoding reEncode } forall
%%EndProlog
%%BeginSetup
%%EndSetup
newpath  gsave  .25 .25 scale  gsave  0 0 t black[  ] 0 sd 3 lw 1 1 1 c 2268 1540 0 0 bf black 1 1 1 c 1791 1155 363 308 bf black 1791 1155 363 308 bl 1 1 1 c 1791 1155 363 308 bf black 1791 1155 363 308 bl 363 308 m 1791 X s
 gsave  2268 1540 0 0 C 2115.02 123.457 t 0 r /Symbol findfont 71.4753 sf 0 0 m (h) show NC gr  363 344 m -36 Y s 423 326 m -18 Y s 482 326 m -18 Y s 542 326 m -18 Y s 602 326 m -18 Y s 661 344 m -36 Y s 721 326 m -18 Y s 781 326 m -18 Y s 841 326 m
 -18 Y s 900 326 m -18 Y s 960 344 m -36 Y s 1020 326 m -18 Y s 1079 326 m -18 Y s 1139 326 m -18 Y s 1199 326 m -18 Y s 1259 344 m -36 Y s 1318 326 m -18 Y s 1378 326 m -18 Y s 1438 326 m -18 Y s 1497 326 m -18 Y s 1557 344 m -36 Y s 1617 326 m -18
 Y s 1677 326 m -18 Y s 1736 326 m -18 Y s 1796 326 m -18 Y s 1856 344 m -36 Y s 1915 326 m -18 Y s 1975 326 m -18 Y s 2035 326 m -18 Y s 2095 326 m -18 Y s 2154 344 m -36 Y s 2154 344 m -36 Y s
 gsave  2268 1540 0 0 C 357.377 240.417 t 0 r /Helvetica findfont 71.4753 sf 0 0 m (3) show NC gr 
 gsave  2268 1540 0 0 C 321.639 240.417 t 0 r /Symbol findfont 71.4753 sf 0 0 m (-) show NC gr 
 gsave  2268 1540 0 0 C 656.273 240.417 t 0 r /Helvetica findfont 71.4753 sf 0 0 m (2) show NC gr 
 gsave  2268 1540 0 0 C 620.536 240.417 t 0 r /Symbol findfont 71.4753 sf 0 0 m (-) show NC gr 
 gsave  2268 1540 0 0 C 961.668 240.417 t 0 r /Helvetica findfont 71.4753 sf 0 0 m (1) show NC gr 
 gsave  2268 1540 0 0 C 925.93 240.417 t 0 r /Symbol findfont 71.4753 sf 0 0 m (-) show NC gr 
 gsave  2268 1540 0 0 C 1237.82 240.417 t 0 r /Helvetica findfont 71.4753 sf 0 0 m (0) show NC gr 
 gsave  2268 1540 0 0 C 1543.22 240.417 t 0 r /Helvetica findfont 71.4753 sf 0 0 m (1) show NC gr 
 gsave  2268 1540 0 0 C 1835.62 240.417 t 0 r /Helvetica findfont 71.4753 sf 0 0 m (2) show NC gr 
 gsave  2268 1540 0 0 C 2134.51 240.417 t 0 r /Helvetica findfont 71.4753 sf 0 0 m (3) show NC gr  363 1463 m 1791 X s 363 1426 m 37 Y s 423 1445 m 18 Y s 482 1445 m 18 Y s 542 1445 m 18 Y s 602 1445 m 18 Y s 661 1426 m 37 Y s 721 1445 m 18 Y s 781
 1445 m 18 Y s 841 1445 m 18 Y s 900 1445 m 18 Y s 960 1426 m 37 Y s 1020 1445 m 18 Y s 1079 1445 m 18 Y s 1139 1445 m 18 Y s 1199 1445 m 18 Y s 1259 1426 m 37 Y s 1318 1445 m 18 Y s 1378 1445 m 18 Y s 1438 1445 m 18 Y s 1497 1445 m 18 Y s 1557 1426
 m 37 Y s 1617 1445 m 18 Y s 1677 1445 m 18 Y s 1736 1445 m 18 Y s 1796 1445 m 18 Y s 1856 1426 m 37 Y s 1915 1445 m 18 Y s 1975 1445 m 18 Y s 2035 1445 m 18 Y s 2095 1445 m 18 Y s 2154 1426 m 37 Y s 2154 1426 m 37 Y s 363 308 m 1155 Y s
 gsave  2268 1540 0 0 C 133.204 1189.09 t 90 r /Helvetica findfont 71.4753 sf 0 0 m ( Fraction) show NC gr  388 850 m -25 X s
 gsave  2268 1540 0 0 C 204.679 825.215 t 0 r /Helvetica findfont 71.4753 sf 0 0 m (0.02) show NC gr  388 1240 m -25 X s
 gsave  2268 1540 0 0 C 204.679 1215.08 t 0 r /Helvetica findfont 71.4753 sf 0 0 m (0.03) show NC gr  2154 308 m 1155 Y s 2129 850 m 25 X s 2129 1240 m 25 X s 1 0 0 c 6 lw 1 1 1 c 1 0 0 c 363 308 m 179 X 124 Y 30 X 273 Y 30 X 75 Y 30 X 38 Y 59 X 41 Y
 30 X 8 Y 30 X 16 Y 30 X 12 Y 30 X 11 Y 30 X 9 Y 29 X 4 Y 30 X 21 Y 30 X -13 Y 30 X -2 Y 30 X 11 Y 30 X 16 Y 30 X -8 Y 29 X 1 Y 30 X -3 Y 30 X -29 Y 30 X -34 Y 30 X -10 Y 30 X -14 Y 30 X -4 Y 29 X 8 Y 30 X 27 Y 30 X 12 Y 30 X 20 Y 30 X 19 Y 30 X 5 Y
 30 X -7 Y 29 X -5 Y 30 X -9 Y 30 X 10 Y 30 X 1 Y 30 X -4 Y 30 X -4 Y 30 X -17 Y 29 X -26 Y 30 X 19 Y 30 X -18 Y 30 X -37 Y 30 X -10 Y 30 X -34 Y 30 X -15 Y 29 X -65 Y 30 X -291 Y 30 X -122 Y 179 X s 0 1 0 c 1 1 1 c 0 1 0 c 363 308 m 179 X 109 Y 30 X
 294 Y 30 X 86 Y 30 X 27 Y 29 X 31 Y 30 X 6 Y 30 X 22 Y 30 X 23 Y 30 X -8 Y 30 X 11 Y 30 X 16 Y 29 X -4 Y 30 X 15 Y 30 X 4 Y 30 X -19 Y 30 X -1 Y 30 X 19 Y 30 X 3 Y 29 X -8 Y 30 X -24 Y 30 X -30 Y 30 X -26 Y 30 X -11 Y 30 X 12 Y 30 X -5 Y 29 X -13 Y
 30 X 28 Y 30 X 8 Y 30 X 56 Y 30 X 15 Y 30 X -13 Y 30 X -5 Y 29 X 11 Y 30 X -22 Y 30 X 15 Y 30 X -3 Y 30 X 9 Y 30 X -16 Y 30 X -20 Y 29 X -6 Y 30 X 10 Y 30 X -14 Y 30 X -6 Y 30 X -41 Y 30 X -9 Y 30 X -34 Y 29 X -71 Y 30 X -309 Y 30 X -112 Y 179 X s 0
 0 1 c 1 1 1 c 0 0 1 c 363 308 m 179 X 122 Y 30 X 291 Y 30 X 78 Y 30 X 21 Y 29 X 34 Y 30 X 15 Y 30 X 17 Y 30 X 8 Y 30 X 27 Y 30 X 6 Y 59 X -1 Y 30 X 12 Y 30 X -5 Y 30 X -10 Y 30 X -13 Y 30 X 23 Y 30 X 4 Y 29 X -2 Y 30 X -33 Y 30 X -33 Y 30 X -13 Y 30
 X -14 Y 30 X 18 Y 30 X -13 Y 29 X 3 Y 30 X -7 Y 30 X -1 Y 30 X 74 Y 30 X 25 Y 30 X -22 Y 30 X 15 Y 29 X -24 Y 30 X 8 Y 30 X 8 Y 30 X 21 Y 30 X -3 Y 30 X -30 Y 30 X 5 Y 29 X -27 Y 30 X -1 Y 30 X -4 Y 30 X -24 Y 30 X -6 Y 30 X -13 Y 30 X -4 Y 29 X
 -113 Y 30 X -320 Y 30 X -99 Y 179 X s 1 0 1 c 1 1 1 c 1 0 1 c 363 308 m 179 X 67 Y 30 X 336 Y 30 X 70 Y 30 X 4 Y 29 X 54 Y 30 X 43 Y 30 X -27 Y 30 X 36 Y 30 X 34 Y 30 X 17 Y 30 X -20 Y 29 X -30 Y 30 X 60 Y 30 X -5 Y 30 X 4 Y 30 X -22 Y 30 X 34 Y 30
 X -21 Y 29 X -27 Y 30 X 36 Y 30 X -40 Y 30 X -67 Y 30 X 27 Y 30 X -73 Y 30 X 81 Y 29 X -28 Y 30 X 14 Y 30 X 42 Y 30 X 41 Y 30 X -18 Y 30 X 42 Y 30 X -4 Y 29 X -36 Y 30 X -22 Y 30 X 36 Y 30 X 3 Y 30 X -18 Y 30 X 2 Y 30 X -48 Y 29 X 43 Y 30 X -48 Y 30
 X -41 Y 30 X 32 Y 30 X -56 Y 30 X -31 Y 30 X -19 Y 29 X -77 Y 30 X -277 Y 30 X -103 Y 179 X s black[  12 12 ] 0 sd 1 1 1 c black 363 308 m 179 X 127 Y 30 X 309 Y 30 X 72 Y 30 X 22 Y 29 X 46 Y 30 X 6 Y 30 X 43 Y 30 X -13 Y 30 X -32 Y 30 X 27 Y 30 X
 -2 Y 29 X 6 Y 30 X 10 Y 30 X -46 Y 30 X 30 Y 30 X 23 Y 30 X -13 Y 30 X 17 Y 29 X -23 Y 30 X 2 Y 30 X -37 Y 30 X -71 Y 30 X -29 Y 30 X 58 Y 30 X -51 Y 29 X 69 Y 30 X -2 Y 30 X -11 Y 30 X 52 Y 30 X 11 Y 30 X 23 Y 30 X 9 Y 29 X 18 Y 30 X -76 Y 30 X 70
 Y 30 X -36 Y 30 X -14 Y 30 X 9 Y 30 X 6 Y 29 X -38 Y 30 X 56 Y 30 X -38 Y 30 X 2 Y 30 X -46 Y 30 X 4 Y 30 X -29 Y 29 X -71 Y 30 X -340 Y 30 X -109 Y 179 X s 0 1 1 c[ 20 12 4 12] 0 sd 1 1 1 c 0 1 1 c 363 308 m 179 X 153 Y 30 X 301 Y 30 X 29 Y 30 X 58
 Y 29 X -9 Y 30 X 41 Y 30 X 61 Y 30 X -70 Y 30 X 53 Y 30 X -47 Y 30 X 84 Y 29 X -35 Y 30 X 64 Y 30 X -39 Y 30 X -48 Y 30 X 33 Y 30 X 3 Y 30 X -16 Y 29 X 13 Y 30 X -16 Y 30 X -20 Y 30 X -67 Y 30 X 21 Y 30 X -26 Y 30 X -18 Y 29 X -4 Y 30 X 8 Y 30 X 32
 Y 30 X 68 Y 30 X 13 Y 30 X -10 Y 30 X -10 Y 29 X 9 Y 30 X 34 Y 30 X -52 Y 30 X 37 Y 30 X -54 Y 30 X 16 Y 30 X 27 Y 29 X -14 Y 30 X -12 Y 30 X -38 Y 30 X 37 Y 30 X -32 Y 30 X -52 Y 30 X -17 Y 29 X -64 Y 30 X -285 Y 30 X -140 Y 179 X s 0.8 0.8 0.8 c[
 20 12 4 12 4 12 4 12] 0 sd 1 1 1 c 0.8 0.8 0.8 c 363 308 m 179 X 174 Y 30 X 237 Y 30 X 115 Y 30 X -42 Y 29 X 67 Y 30 X 4 Y 30 X -21 Y 30 X 100 Y 30 X -117 Y 30 X 98 Y 30 X -31 Y 29 X 64 Y 30 X -27 Y 30 X 21 Y 30 X 9 Y 30 X -101 Y 30 X -6 Y 30 X 82 Y
 29 X -25 Y 30 X 24 Y 30 X 8 Y 30 X -46 Y 30 X -47 Y 30 X -10 Y 30 X -18 Y 29 X 80 Y 30 X -72 Y 30 X -15 Y 30 X 45 Y 30 X 62 Y 30 X -39 Y 30 X 61 Y 29 X -46 Y 30 X 28 Y 30 X -5 Y 30 X 65 Y 30 X 32 Y 30 X -66 Y 30 X -31 Y 29 X -18 Y 30 X -25 Y 30 X
 103 Y 30 X -103 Y 30 X -44 Y 30 X 30 Y 30 X -52 Y 29 X -81 Y 30 X -262 Y 30 X -159 Y 179 X s 0.35 0.83 0.33 c[ 80 20] 0 sd 1 1 1 c 0.35 0.83 0.33 c 363 308 m 149 X 287 Y 30 X 531 Y 30 X 272 Y 30 X -101 Y 30 X -173 Y 29 X -94 Y 30 X -104 Y 30 X -144
 Y 30 X -145 Y 30 X 28 Y 30 X -39 Y 30 X 109 Y 29 X 3 Y 30 X 5 Y 30 X -73 Y 30 X 60 Y 30 X -102 Y 30 X -63 Y 30 X 23 Y 29 X 61 Y 30 X 35 Y 30 X 153 Y 30 X 82 Y 30 X 21 Y 30 X -119 Y 30 X 7 Y 29 X 100 Y 30 X -57 Y 30 X 44 Y 30 X -125 Y 30 X -199 Y 30
 X 15 Y 30 X -64 Y 29 X 19 Y 30 X 58 Y 30 X 77 Y 30 X -2 Y 30 X -139 Y 30 X 193 Y 30 X -197 Y 29 X 129 Y 30 X -17 Y 30 X 148 Y 30 X 86 Y 30 X 129 Y 30 X 60 Y 30 X 179 Y 29 X 109 Y 30 X -207 Y 30 X -579 Y 30 X -280 Y 149 X s black
 gsave  2268 1540 0 0 C 1510.73 1377.52 t 0 r /Helvetica-Bold findfont 35.7377 sf 0 0 m (J/psi[3S1\(8\)]) show NC gr  1 0 0 c[  ] 0 sd 1406 1387 m 88 X s black
 gsave  2268 1540 0 0 C 1510.73 1332.04 t 0 r /Helvetica-Bold findfont 35.7377 sf 0 0 m (chi_1c) show NC gr  0 1 0 c 1406 1341 m 88 X s black
 gsave  2268 1540 0 0 C 1510.73 1286.56 t 0 r /Helvetica-Bold findfont 35.7377 sf 0 0 m (chi_2c) show NC gr  0 0 1 c 1406 1294 m 88 X s black
 gsave  2268 1540 0 0 C 1510.73 1237.82 t 0 r /Helvetica-Bold findfont 35.7377 sf 0 0 m (psi\(2S\)) show NC gr  1 0 1 c 1406 1248 m 88 X s black
 gsave  2268 1540 0 0 C 1510.73 1192.34 t 0 r /Helvetica-Bold findfont 35.7377 sf 0 0 m (J/psi[3PJ\(8\)]) show NC gr [  12 12 ] 0 sd 1406 1202 m 88 X s
 gsave  2268 1540 0 0 C 1510.73 1146.85 t 0 r /Helvetica-Bold findfont 35.7377 sf 0 0 m (J/psi[1S0\(8\)]) show NC gr  0 1 1 c[ 20 12 4 12] 0 sd 1406 1155 m 88 X s black
 gsave  2268 1540 0 0 C 1510.73 1101.37 t 0 r /Helvetica-Bold findfont 35.7377 sf 0 0 m (chi_0c) show NC gr  0.8 0.8 0.8 c[ 20 12 4 12 4 12 4 12] 0 sd 1406 1109 m 88 X s black
 gsave  2268 1540 0 0 C 1510.73 1052.64 t 0 r /Helvetica-Bold findfont 35.7377 sf 0 0 m (void) show NC gr  0.35 0.83 0.33 c[ 80 20] 0 sd 1406 1063 m 88 X s
 gr  gr showpage
end
%%EOF
