%!PS-Adobe-2.0 EPSF-2.0
%%BoundingBox:  0 0 567 385
%%Title: figs_2016Jan21/allSource_mu_ptvarcone30_over_pt.eps: c1
%%Creator: ROOT Version 6.04/02
%%CreationDate: Thu Jan 21 18:42:31 2016
%%DocumentNeededResources: ProcSet (FontSetInit)
%%EndComments
%%BeginProlog
80 dict begin
/s {stroke} def /l {lineto} def /m {moveto} def /t {translate} def
/r {rotate} def /rl {roll}  def /R {repeat} def
/d {rlineto} def /rm {rmoveto} def /gr {grestore} def /f {eofill} def
/c {setrgbcolor} def /black {0 setgray} def /sd {setdash} def
/cl {closepath} def /sf {scalefont setfont} def /lw {setlinewidth} def
/box {m dup 0 exch d exch 0 d 0 exch neg d cl} def
/NC{systemdict begin initclip end}def/C{NC box clip newpath}def
/bl {box s} def /bf {gsave box gsave f grestore 1 lw [] 0 sd s grestore} def /Y { 0 exch d} def /X { 0 d} def 
/K {{pop pop 0 moveto} exch kshow} bind def
/ita {/ang 15 def gsave [1 0 ang dup sin exch cos div 1 0 0] concat} def 
/mp {newpath /y exch def /x exch def} def
/side {[w .77 mul w .23 mul] .385 w mul sd w 0 l currentpoint t -144 r} def
/mr {mp x y w2 0 360 arc} def /m24 {mr s} def /m20 {mr f} def
/mb {mp x y w2 add m w2 neg 0 d 0 w neg d w 0 d 0 w d cl} def
/mt {mp x y w2 add m w2 neg w neg d w 0 d cl} def
/m21 {mb f} def /m25 {mb s} def /m22 {mt f} def /m26{mt s} def
/m23 {mp x y w2 sub m w2 w d w neg 0 d cl f} def
/m27 {mp x y w2 add m w3 neg w2 neg d w3 w2 neg d w3 w2 d cl s} def
/m28 {mp x w2 sub y w2 sub w3 add m w3 0 d  0 w3 neg d w3 0 d 0 w3 d w3 0 d  0 w3 d w3 neg 0 d 0 w3 d w3 neg 0 d 0 w3 neg d w3 neg 0 d cl s } def
/m29 {mp gsave x w2 sub y w2 add w3 sub m currentpoint t 4 {side} repeat cl fill gr} def
/m30 {mp gsave x w2 sub y w2 add w3 sub m currentpoint t 4 {side} repeat cl s gr} def
/m31 {mp x y w2 sub m 0 w d x w2 sub y m w 0 d x w2 sub y w2 add m w w neg d x w2 sub y w2 sub m w w d s} def
/m32 {mp x y w2 sub m w2 w d w neg 0 d cl s} def
/m33 {mp x y w2 add m w3 neg w2 neg d w3 w2 neg d w3 w2 d cl f} def
/m34 {mp x w2 sub y w2 sub w3 add m w3 0 d  0 w3 neg d w3 0 d 0 w3 d w3 0 d  0 w3 d w3 neg 0 d 0 w3 d w3 neg 0 d 0 w3 neg d w3 neg 0 d cl f } def
/m2 {mp x y w2 sub m 0 w d x w2 sub y m w 0 d s} def
/m5 {mp x w2 sub y w2 sub m w w d x w2 sub y w2 add m w w neg d s} def
%%IncludeResource: ProcSet (FontSetInit)
%%IncludeResource: font Times-Roman
%%IncludeResource: font Times-Italic
%%IncludeResource: font Times-Bold
%%IncludeResource: font Times-BoldItalic
%%IncludeResource: font Helvetica
%%IncludeResource: font Helvetica-Oblique
%%IncludeResource: font Helvetica-Bold
%%IncludeResource: font Helvetica-BoldOblique
%%IncludeResource: font Courier
%%IncludeResource: font Courier-Oblique
%%IncludeResource: font Courier-Bold
%%IncludeResource: font Courier-BoldOblique
%%IncludeResource: font Symbol
%%IncludeResource: font ZapfDingbats
/reEncode {exch findfont dup length dict begin {1 index /FID eq  {pop pop} {def} ifelse } forall /Encoding exch def currentdict end dup /FontName get exch definefont pop } def [/Times-Bold /Times-Italic /Times-BoldItalic /Helvetica /Helvetica-Oblique
 /Helvetica-Bold /Helvetica-BoldOblique /Courier /Courier-Oblique /Courier-Bold /Courier-BoldOblique /Times-Roman /AvantGarde-Book /AvantGarde-BookOblique /AvantGarde-Demi /AvantGarde-DemiOblique /Bookman-Demi /Bookman-DemiItalic /Bookman-Light
 /Bookman-LightItalic /Helvetica-Narrow /Helvetica-Narrow-Bold /Helvetica-Narrow-BoldOblique /Helvetica-Narrow-Oblique /NewCenturySchlbk-Roman /NewCenturySchlbk-Bold /NewCenturySchlbk-BoldItalic /NewCenturySchlbk-Italic /Palatino-Bold
 /Palatino-BoldItalic /Palatino-Italic /Palatino-Roman ] {ISOLatin1Encoding reEncode } forall
%%EndProlog
%%BeginSetup
%%EndSetup
newpath  gsave  .25 .25 scale  gsave  0 0 t black[  ] 0 sd 3 lw 1 1 1 c 2268 1540 0 0 bf black 1 1 1 c 1791 1155 363 308 bf black 1791 1155 363 308 bl 1 1 1 c 1791 1155 363 308 bf black 1791 1155 363 308 bl 363 308 m 1791 X s
 gsave  2268 1540 0 0 C 2124.77 87.7197 t 0 r /Helvetica findfont 48.7332 sf 0 0 m (T) show NC gr 
 gsave  2268 1540 0 0 C 1673.17 126.706 t 0 r /Helvetica findfont 71.4753 sf 0 0 m (ptvarcone30/p) show NC gr  363 344 m -36 Y s 399 326 m -18 Y s 434 326 m -18 Y s 470 326 m -18 Y s 506 326 m -18 Y s 542 344 m -36 Y s 578 326 m -18 Y s 614 326 m -18
 Y s 649 326 m -18 Y s 685 326 m -18 Y s 721 344 m -36 Y s 757 326 m -18 Y s 793 326 m -18 Y s 829 326 m -18 Y s 864 326 m -18 Y s 900 344 m -36 Y s 936 326 m -18 Y s 972 326 m -18 Y s 1008 326 m -18 Y s 1044 326 m -18 Y s 1079 344 m -36 Y s 1115 326
 m -18 Y s 1151 326 m -18 Y s 1187 326 m -18 Y s 1223 326 m -18 Y s 1259 344 m -36 Y s 1294 326 m -18 Y s 1330 326 m -18 Y s 1366 326 m -18 Y s 1402 326 m -18 Y s 1438 344 m -36 Y s 1474 326 m -18 Y s 1509 326 m -18 Y s 1545 326 m -18 Y s 1581 326 m
 -18 Y s 1617 344 m -36 Y s 1653 326 m -18 Y s 1689 326 m -18 Y s 1724 326 m -18 Y s 1760 326 m -18 Y s 1796 344 m -36 Y s 1832 326 m -18 Y s 1868 326 m -18 Y s 1904 326 m -18 Y s 1939 326 m -18 Y s 1975 344 m -36 Y s 2011 326 m -18 Y s 2047 326 m
 -18 Y s 2083 326 m -18 Y s 2119 326 m -18 Y s 2154 344 m -36 Y s
 gsave  2268 1540 0 0 C 341.132 240.417 t 0 r /Helvetica findfont 71.4753 sf 0 0 m (0) show NC gr 
 gsave  2268 1540 0 0 C 497.078 240.417 t 0 r /Helvetica findfont 71.4753 sf 0 0 m (0.1) show NC gr 
 gsave  2268 1540 0 0 C 669.269 240.417 t 0 r /Helvetica findfont 71.4753 sf 0 0 m (0.2) show NC gr 
 gsave  2268 1540 0 0 C 851.206 240.417 t 0 r /Helvetica findfont 71.4753 sf 0 0 m (0.3) show NC gr 
 gsave  2268 1540 0 0 C 1029.89 240.417 t 0 r /Helvetica findfont 71.4753 sf 0 0 m (0.4) show NC gr 
 gsave  2268 1540 0 0 C 1208.58 240.417 t 0 r /Helvetica findfont 71.4753 sf 0 0 m (0.5) show NC gr 
 gsave  2268 1540 0 0 C 1387.27 240.417 t 0 r /Helvetica findfont 71.4753 sf 0 0 m (0.6) show NC gr 
 gsave  2268 1540 0 0 C 1565.96 240.417 t 0 r /Helvetica findfont 71.4753 sf 0 0 m (0.7) show NC gr 
 gsave  2268 1540 0 0 C 1744.65 240.417 t 0 r /Helvetica findfont 71.4753 sf 0 0 m (0.8) show NC gr 
 gsave  2268 1540 0 0 C 1923.34 240.417 t 0 r /Helvetica findfont 71.4753 sf 0 0 m (0.9) show NC gr 
 gsave  2268 1540 0 0 C 2141.01 240.417 t 0 r /Helvetica findfont 71.4753 sf 0 0 m (1) show NC gr  363 1463 m 1791 X s 363 1426 m 37 Y s 399 1445 m 18 Y s 434 1445 m 18 Y s 470 1445 m 18 Y s 506 1445 m 18 Y s 542 1426 m 37 Y s 578 1445 m 18 Y s 614
 1445 m 18 Y s 649 1445 m 18 Y s 685 1445 m 18 Y s 721 1426 m 37 Y s 757 1445 m 18 Y s 793 1445 m 18 Y s 829 1445 m 18 Y s 864 1445 m 18 Y s 900 1426 m 37 Y s 936 1445 m 18 Y s 972 1445 m 18 Y s 1008 1445 m 18 Y s 1044 1445 m 18 Y s 1079 1426 m 37 Y
 s 1115 1445 m 18 Y s 1151 1445 m 18 Y s 1187 1445 m 18 Y s 1223 1445 m 18 Y s 1259 1426 m 37 Y s 1294 1445 m 18 Y s 1330 1445 m 18 Y s 1366 1445 m 18 Y s 1402 1445 m 18 Y s 1438 1426 m 37 Y s 1474 1445 m 18 Y s 1509 1445 m 18 Y s 1545 1445 m 18 Y s
 1581 1445 m 18 Y s 1617 1426 m 37 Y s 1653 1445 m 18 Y s 1689 1445 m 18 Y s 1724 1445 m 18 Y s 1760 1445 m 18 Y s 1796 1426 m 37 Y s 1832 1445 m 18 Y s 1868 1445 m 18 Y s 1904 1445 m 18 Y s 1939 1445 m 18 Y s 1975 1426 m 37 Y s 2011 1445 m 18 Y s
 2047 1445 m 18 Y s 2083 1445 m 18 Y s 2119 1445 m 18 Y s 2154 1426 m 37 Y s 363 308 m 1155 Y s
 gsave  2268 1540 0 0 C 133.204 1189.09 t 90 r /Helvetica findfont 71.4753 sf 0 0 m ( Fraction) show NC gr  388 325 m -25 X s 388 342 m -25 X s 388 358 m -25 X s 388 371 m -25 X s 414 383 m -51 X s
 gsave  2268 1540 0 0 C 315.141 380.119 t 0 r /Helvetica findfont 48.7332 sf 0 0 m (4) show NC gr 
 gsave  2268 1540 0 0 C 289.15 380.119 t 0 r /Symbol findfont 48.7332 sf 0 0 m (-) show NC gr 
 gsave  2268 1540 0 0 C 211.177 350.879 t 0 r /Helvetica findfont 71.4753 sf 0 0 m (10) show NC gr  388 462 m -25 X s 388 508 m -25 X s 388 540 m -25 X s 388 566 m -25 X s 388 586 m -25 X s 388 604 m -25 X s 388 619 m -25 X s 388 632 m -25 X s 414
 644 m -51 X s
 gsave  2268 1540 0 0 C 315.141 646.527 t 0 r /Helvetica findfont 48.7332 sf 0 0 m (3) show NC gr 
 gsave  2268 1540 0 0 C 289.15 646.527 t 0 r /Symbol findfont 48.7332 sf 0 0 m (-) show NC gr 
 gsave  2268 1540 0 0 C 211.177 614.038 t 0 r /Helvetica findfont 71.4753 sf 0 0 m (10) show NC gr  388 723 m -25 X s 388 769 m -25 X s 388 802 m -25 X s 388 827 m -25 X s 388 848 m -25 X s 388 865 m -25 X s 388 881 m -25 X s 388 894 m -25 X s 414
 906 m -51 X s
 gsave  2268 1540 0 0 C 315.141 903.188 t 0 r /Helvetica findfont 48.7332 sf 0 0 m (2) show NC gr 
 gsave  2268 1540 0 0 C 289.15 903.188 t 0 r /Symbol findfont 48.7332 sf 0 0 m (-) show NC gr 
 gsave  2268 1540 0 0 C 211.177 873.948 t 0 r /Helvetica findfont 71.4753 sf 0 0 m (10) show NC gr  388 985 m -25 X s 388 1031 m -25 X s 388 1063 m -25 X s 388 1089 m -25 X s 388 1109 m -25 X s 388 1127 m -25 X s 388 1142 m -25 X s 388 1155 m -25 X s
 414 1167 m -51 X s
 gsave  2268 1540 0 0 C 321.639 1166.35 t 0 r /Helvetica findfont 48.7332 sf 0 0 m (1) show NC gr 
 gsave  2268 1540 0 0 C 295.648 1166.35 t 0 r /Symbol findfont 48.7332 sf 0 0 m (-) show NC gr 
 gsave  2268 1540 0 0 C 217.675 1137.11 t 0 r /Helvetica findfont 71.4753 sf 0 0 m (10) show NC gr  388 1246 m -25 X s 388 1292 m -25 X s 388 1325 m -25 X s 388 1350 m -25 X s 388 1371 m -25 X s 388 1388 m -25 X s 388 1404 m -25 X s 388 1417 m -25 X
 s 414 1429 m -51 X s
 gsave  2268 1540 0 0 C 342.425 1398.97 t 0 r  -39 0 t /Helvetica findfont 71.4753 sf 0 0 m (1) show NC gr  2154 308 m 1155 Y s 2129 325 m 25 X s 2129 342 m 25 X s 2129 358 m 25 X s 2129 371 m 25 X s 2103 383 m 51 X s 2129 462 m 25 X s 2129 508 m 25
 X s 2129 540 m 25 X s 2129 566 m 25 X s 2129 586 m 25 X s 2129 604 m 25 X s 2129 619 m 25 X s 2129 632 m 25 X s 2103 644 m 51 X s 2129 723 m 25 X s 2129 769 m 25 X s 2129 802 m 25 X s 2129 827 m 25 X s 2129 848 m 25 X s 2129 865 m 25 X s 2129 881 m
 25 X s 2129 894 m 25 X s 2103 906 m 51 X s 2129 985 m 25 X s 2129 1031 m 25 X s 2129 1063 m 25 X s 2129 1089 m 25 X s 2129 1109 m 25 X s 2129 1127 m 25 X s 2129 1142 m 25 X s 2129 1155 m 25 X s 2103 1167 m 51 X s 2129 1246 m 25 X s 2129 1292 m 25 X
 s 2129 1325 m 25 X s 2129 1350 m 25 X s 2129 1371 m 25 X s 2129 1388 m 25 X s 2129 1404 m 25 X s 2129 1417 m 25 X s 2103 1429 m 51 X s 1 0 0 c 6 lw 1 1 1 c 1 0 0 c 363 1403 m 18 X -1095 Y 71 X 101 Y 18 X 113 Y 18 X 71 Y 18 X 48 Y 18 X 43 Y 18 X 31 Y
 18 X 28 Y 18 X 20 Y 18 X 18 Y 18 X 13 Y 18 X 13 Y 17 X 9 Y 18 X 10 Y 18 X 6 Y 18 X 6 Y 18 X 6 Y 18 X 4 Y 18 X 5 Y 18 X 2 Y 18 X 2 Y 18 X -4 Y 18 X -7 Y 18 X -10 Y 17 X -11 Y 18 X -5 Y 18 X -9 Y 18 X -7 Y 18 X -9 Y 18 X -7 Y 18 X -6 Y 18 X -5 Y 18 X
 -8 Y 18 X -8 Y 18 X -4 Y 18 X -6 Y 17 X -5 Y 18 X -6 Y 18 X -2 Y 18 X -8 Y 18 X -3 Y 18 X -3 Y 18 X -7 Y 18 X -3 Y 18 X -3 Y 18 X -4 Y 18 X -3 Y 17 X -4 Y 18 X -1 Y 18 X -7 Y 18 X 1 Y 18 X -6 Y 18 X -3 Y 18 X -1 Y 18 X -5 Y 18 X -3 Y 18 X -2 Y 18 X
 -6 Y 18 X -3 Y 17 X 1 Y 18 X -5 Y 18 X -6 Y 18 X -1 Y 18 X -2 Y 18 X -3 Y 18 X -5 Y 36 X -2 Y 18 X -5 Y 18 X -1 Y 18 X -4 Y 17 X -5 Y 36 X -4 Y 18 X -3 Y 18 X 2 Y 18 X -6 Y 18 X -5 Y 18 X 1 Y 18 X -7 Y 18 X -2 Y 18 X 3 Y 18 X -6 Y 17 X -3 Y 18 X -1
 Y 18 X 3 Y 18 X -4 Y 18 X -8 Y 18 X 3 Y 18 X 1 Y 18 X -6 Y 18 X -6 Y 18 X -1 Y 36 X 3 Y 17 X -2 Y 18 X s 0 1 0 c 1 1 1 c 0 1 0 c 363 1408 m 18 X -1100 Y 89 X 91 Y 18 X 88 Y 18 X 67 Y 18 X 44 Y 18 X 45 Y 18 X 34 Y 18 X 27 Y 18 X 26 Y 18 X 20 Y 18 X
 18 Y 17 X 16 Y 18 X 13 Y 18 X 12 Y 18 X 8 Y 18 X 11 Y 18 X 8 Y 18 X 7 Y 18 X 5 Y 18 X 5 Y 18 X -3 Y 18 X -7 Y 18 X -9 Y 17 X -8 Y 18 X -12 Y 18 X -6 Y 18 X -10 Y 18 X -5 Y 18 X -11 Y 18 X -5 Y 18 X -8 Y 18 X -11 Y 18 X -4 Y 18 X -9 Y 18 X -6 Y 17 X
 -6 Y 18 X -6 Y 18 X -5 Y 18 X -3 Y 18 X -7 Y 18 X -8 Y 18 X -7 Y 18 X -4 Y 18 X -2 Y 18 X -3 Y 18 X -5 Y 17 X -8 Y 18 X 2 Y 18 X -9 Y 18 X -1 Y 18 X -5 Y 18 X -9 Y 18 X -4 Y 18 X -1 Y 18 X -2 Y 18 X -4 Y 36 X -8 Y 17 X -5 Y 18 X -6 Y 18 X -4 Y 18 X
 -1 Y 18 X -2 Y 18 X -8 Y 18 X 1 Y 18 X -9 Y 18 X -2 Y 18 X -3 Y 18 X -8 Y 18 X -2 Y 17 X -2 Y 18 X 1 Y 18 X -1 Y 18 X -11 Y 18 X 8 Y 18 X -10 Y 18 X -6 Y 18 X -5 Y 36 X 2 Y 18 X -5 Y 18 X -4 Y 17 X -7 Y 18 X 3 Y 18 X -3 Y 18 X -7 Y 18 X 2 Y 18 X -5
 Y 18 X -5 Y 18 X -9 Y 18 X 2 Y 18 X 7 Y 18 X -9 Y 18 X -3 Y 17 X -7 Y 18 X s 0 0 1 c 1 1 1 c 0 0 1 c 363 1408 m 18 X -1100 Y 89 X 69 Y 18 X 99 Y 18 X 64 Y 18 X 38 Y 18 X 45 Y 18 X 31 Y 18 X 34 Y 18 X 23 Y 18 X 25 Y 18 X 17 Y 17 X 18 Y 18 X 16 Y 18 X
 18 Y 18 X 8 Y 18 X 12 Y 18 X 11 Y 18 X 9 Y 18 X 4 Y 18 X 9 Y 18 X -5 Y 18 X -9 Y 18 X -7 Y 17 X -11 Y 18 X -9 Y 18 X -6 Y 18 X -8 Y 18 X -9 Y 18 X -6 Y 18 X -10 Y 18 X -8 Y 18 X -8 Y 18 X -5 Y 18 X -10 Y 18 X -4 Y 17 X -10 Y 18 X -7 Y 18 X -5 Y 36 X
 -9 Y 18 X -4 Y 18 X -3 Y 18 X -8 Y 18 X -2 Y 18 X -4 Y 18 X -5 Y 17 X -10 Y 36 X -1 Y 18 X -7 Y 18 X 2 Y 18 X -9 Y 18 X -4 Y 18 X -5 Y 18 X -8 Y 18 X 2 Y 18 X -7 Y 18 X -4 Y 17 X -2 Y 18 X -3 Y 18 X -8 Y 18 X -1 Y 18 X -5 Y 18 X -2 Y 18 X -2 Y 18 X
 -12 Y 36 X -1 Y 18 X -8 Y 18 X 2 Y 17 X -8 Y 18 X -11 Y 18 X 7 Y 18 X 1 Y 18 X -16 Y 18 X -2 Y 18 X 7 Y 18 X -11 Y 18 X -2 Y 18 X 1 Y 18 X -1 Y 18 X -4 Y 17 X -10 Y 36 X -5 Y 18 X -9 Y 18 X 16 Y 18 X -20 Y 18 X 2 Y 18 X -3 Y 18 X -6 Y 18 X -7 Y 18 X
 3 Y 18 X -3 Y 17 X 3 Y 18 X s 1 0 1 c 1 1 1 c 1 0 1 c 363 1382 m 18 X -1074 Y 71 X 70 Y 18 X 114 Y 18 X 97 Y 18 X 64 Y 18 X 45 Y 18 X 45 Y 18 X 32 Y 18 X 24 Y 18 X 22 Y 18 X 15 Y 18 X 16 Y 17 X 17 Y 18 X 3 Y 18 X 13 Y 18 X 6 Y 18 X 6 Y 18 X 4 Y 18 X
 10 Y 18 X 2 Y 18 X 1 Y 36 X -6 Y 18 X -10 Y 17 X -9 Y 18 X -2 Y 18 X -9 Y 18 X -6 Y 18 X -5 Y 18 X -7 Y 18 X -8 Y 18 X -5 Y 18 X -4 Y 18 X -6 Y 18 X -3 Y 18 X -2 Y 17 X -13 Y 36 X -4 Y 18 X -12 Y 18 X 2 Y 18 X -6 Y 18 X -3 Y 18 X -4 Y 18 X -6 Y 18 X
 -7 Y 18 X 1 Y 17 X -7 Y 18 X -8 Y 18 X 4 Y 18 X -12 Y 18 X -4 Y 18 X -2 Y 18 X -6 Y 18 X -2 Y 18 X -1 Y 18 X -16 Y 18 X 6 Y 18 X -14 Y 17 X -1 Y 18 X -1 Y 18 X -3 Y 36 X -12 Y 18 X 5 Y 18 X -14 Y 18 X 7 Y 18 X -13 Y 18 X -9 Y 18 X 1 Y 18 X -2 Y 17 X
 3 Y 18 X -11 Y 18 X 6 Y 18 X -5 Y 18 X -9 Y 18 X 2 Y 18 X -21 Y 18 X 10 Y 18 X -13 Y 36 X -3 Y 18 X -11 Y 17 X 9 Y 18 X 3 Y 18 X -18 Y 18 X -1 Y 18 X 8 Y 18 X -9 Y 36 X 2 Y 18 X -18 Y 18 X 6 Y 18 X 9 Y 18 X -13 Y 17 X -8 Y 18 X s black[  12 12 ] 0
 sd 1 1 1 c black 363 1408 m 18 X -1100 Y 89 X 55 Y 18 X 87 Y 18 X 65 Y 18 X 40 Y 18 X 63 Y 18 X 27 Y 18 X 35 Y 18 X 26 Y 18 X 25 Y 18 X 22 Y 17 X 20 Y 18 X 16 Y 18 X 7 Y 18 X 21 Y 18 X 7 Y 18 X 15 Y 18 X 2 Y 18 X 8 Y 18 X 11 Y 18 X -1 Y 18 X -6 Y 18
 X -13 Y 17 X -11 Y 18 X -10 Y 18 X -6 Y 18 X -9 Y 18 X -15 Y 18 X 1 Y 18 X -17 Y 18 X -4 Y 18 X -9 Y 18 X -1 Y 18 X -17 Y 18 X -2 Y 17 X -5 Y 18 X -9 Y 18 X -7 Y 18 X -6 Y 18 X -5 Y 18 X -3 Y 18 X -10 Y 18 X -5 Y 18 X 1 Y 18 X -2 Y 18 X -3 Y 17 X
 -14 Y 18 X -6 Y 18 X 13 Y 18 X -18 Y 18 X -6 Y 18 X 3 Y 18 X -13 Y 18 X 5 Y 18 X 2 Y 18 X -8 Y 18 X -6 Y 18 X 1 Y 17 X -11 Y 18 X -17 Y 18 X 14 Y 18 X -15 Y 18 X 1 Y 18 X -2 Y 18 X 1 Y 18 X -18 Y 18 X 8 Y 18 X -17 Y 18 X 9 Y 18 X -23 Y 17 X 13 Y 18
 X -3 Y 18 X -15 Y 18 X 11 Y 18 X -24 Y 18 X -1 Y 18 X 8 Y 18 X -4 Y 18 X -2 Y 18 X -22 Y 18 X 21 Y 18 X -21 Y 17 X 9 Y 18 X 15 Y 18 X -37 Y 18 X -1 Y 18 X 15 Y 18 X 6 Y 36 X -15 Y 18 X -30 Y 18 X 26 Y 18 X -10 Y 18 X -2 Y 17 X -7 Y 18 X s 0 1 1 c[
 20 12 4 12] 0 sd 1 1 1 c 0 1 1 c 363 1408 m 18 X -1100 Y 89 X 57 Y 18 X 81 Y 18 X 47 Y 18 X 72 Y 18 X 47 Y 18 X 34 Y 18 X 42 Y 18 X 25 Y 18 X 27 Y 18 X 11 Y 17 X 16 Y 18 X 22 Y 18 X 14 Y 18 X 12 Y 18 X 12 Y 18 X 12 Y 18 X 7 Y 18 X 8 Y 18 X 4 Y 18 X
 -5 Y 18 X -1 Y 18 X -16 Y 17 X -6 Y 18 X -8 Y 18 X -12 Y 18 X -11 Y 18 X -13 Y 18 X -1 Y 18 X -10 Y 18 X -9 Y 18 X -6 Y 18 X -4 Y 18 X 1 Y 18 X -15 Y 17 X -14 Y 18 X -3 Y 18 X -7 Y 18 X -3 Y 18 X -11 Y 18 X -3 Y 18 X 2 Y 18 X -16 Y 18 X 8 Y 18 X -10
 Y 18 X -4 Y 17 X -11 Y 18 X -2 Y 18 X 3 Y 18 X -10 Y 18 X 8 Y 18 X -12 Y 18 X -2 Y 18 X -9 Y 18 X 1 Y 18 X 2 Y 18 X -8 Y 18 X -3 Y 17 X -5 Y 18 X -17 Y 18 X 13 Y 18 X -6 Y 18 X -10 Y 18 X 9 Y 18 X -21 Y 18 X 12 Y 18 X -17 Y 18 X -1 Y 18 X -13 Y 18 X
 14 Y 17 X -3 Y 18 X -30 Y 18 X 16 Y 18 X -15 Y 18 X 1 Y 18 X -13 Y 18 X 11 Y 18 X -14 Y 18 X 2 Y 18 X -12 Y 36 X 18 Y 17 X -11 Y 18 X -11 Y 18 X -1 Y 18 X -4 Y 18 X -9 Y 18 X 6 Y 18 X -30 Y 18 X 24 Y 18 X -24 Y 18 X 27 Y 18 X -29 Y 18 X 10 Y 17 X 5
 Y 18 X s 0.8 0.8 0.8 c[ 20 12 4 12 4 12 4 12] 0 sd 1 1 1 c 0.8 0.8 0.8 c 363 1408 m 18 X -1100 Y 89 X 96 Y 18 X 71 Y 18 X 44 Y 18 X 73 Y 18 X 73 Y 18 X 12 Y 18 X 21 Y 18 X 40 Y 18 X 25 Y 18 X -10 Y 17 X 34 Y 18 X 14 Y 18 X 17 Y 18 X 5 Y 18 X 7 Y 18
 X 6 Y 18 X 9 Y 18 X 10 Y 18 X 14 Y 18 X -9 Y 18 X -8 Y 18 X -13 Y 17 X -18 Y 18 X 7 Y 18 X -30 Y 18 X -11 Y 18 X 14 Y 18 X -22 Y 18 X -16 Y 18 X 10 Y 18 X -4 Y 18 X -16 Y 18 X -11 Y 18 X -13 Y 17 X -2 Y 18 X 5 Y 18 X -28 Y 18 X 11 Y 18 X 16 Y 18 X
 -27 Y 18 X -9 Y 18 X -39 Y 18 X 21 Y 18 X 8 Y 18 X 2 Y 17 X -18 Y 18 X -7 Y 18 X 5 Y 18 X 14 Y 18 X -22 Y 18 X 9 Y 18 X -3 Y 18 X -27 Y 36 X 17 Y 18 X -2 Y 18 X -13 Y 17 X -19 Y 18 X -14 Y 18 X 27 Y 18 X -16 Y 18 X -21 Y 18 X 5 Y 18 X -13 Y 18 X -21
 Y 18 X 34 Y 18 X 5 Y 18 X -5 Y 18 X 5 Y 17 X -42 Y 18 X 13 Y 18 X 3 Y 36 X -3 Y 18 X -17 Y 18 X -42 Y 18 X 19 Y 18 X -14 Y 18 X 78 Y 18 X -37 Y 18 X -4 Y 17 X 4 Y 18 X -41 Y 18 X 30 Y 18 X 11 Y 18 X -41 Y 18 X -5 Y 18 X 10 Y 18 X 13 Y 18 X -4 Y 18 X
 -19 Y 18 X 35 Y 18 X -72 Y 17 X -32 Y 18 X s 0.35 0.83 0.33 c[ 80 20] 0 sd 1 1 1 c 0.35 0.83 0.33 c 363 1401 m 18 X -965 Y 18 X 11 Y 18 X -139 Y 17 X 88 Y 18 X 15 Y 18 X 125 Y 18 X 42 Y 18 X 10 Y 18 X 74 Y 18 X -24 Y 18 X 38 Y 18 X 15 Y 18 X 38 Y 18
 X 25 Y 18 X 6 Y 17 X 20 Y 18 X 10 Y 18 X 14 Y 18 X -1 Y 18 X 9 Y 18 X 15 Y 18 X 6 Y 18 X 2 Y 18 X 19 Y 18 X -4 Y 18 X -9 Y 18 X -1 Y 17 X -12 Y 18 X -11 Y 18 X -2 Y 18 X 5 Y 18 X -10 Y 18 X 1 Y 18 X -11 Y 18 X 6 Y 18 X -8 Y 18 X -17 Y 18 X -14 Y 18
 X 9 Y 17 X -12 Y 18 X 5 Y 18 X 13 Y 18 X -28 Y 18 X 3 Y 18 X 11 Y 18 X -18 Y 18 X 10 Y 18 X -6 Y 18 X 3 Y 18 X -1 Y 17 X 3 Y 18 X -19 Y 18 X -18 Y 18 X 9 Y 18 X -12 Y 18 X -5 Y 18 X 8 Y 18 X -20 Y 18 X 16 Y 18 X -13 Y 18 X 10 Y 18 X -20 Y 17 X 7 Y
 18 X 11 Y 18 X -42 Y 18 X 21 Y 18 X 2 Y 18 X -5 Y 18 X -3 Y 18 X -10 Y 18 X 13 Y 18 X -26 Y 18 X 2 Y 18 X -2 Y 17 X 2 Y 18 X 3 Y 18 X -36 Y 18 X 22 Y 18 X -11 Y 18 X 32 Y 18 X -18 Y 18 X -10 Y 18 X 2 Y 18 X 3 Y 18 X -12 Y 18 X 14 Y 17 X -28 Y 18 X
 10 Y 18 X 7 Y 18 X -15 Y 18 X -7 Y 18 X 5 Y 18 X -9 Y 18 X 13 Y 18 X -16 Y 18 X 12 Y 18 X 14 Y 18 X -28 Y 17 X 11 Y 18 X s black
 gsave  2268 1540 0 0 C 1708.91 1416.51 t 0 r /Helvetica-Bold findfont 35.7377 sf 0 0 m (J/psi[3S1\(8\)]) show NC gr  1 0 0 c[  ] 0 sd 1606 1424 m 87 X s black
 gsave  2268 1540 0 0 C 1708.91 1371.03 t 0 r /Helvetica-Bold findfont 35.7377 sf 0 0 m (chi_1c) show NC gr  0 1 0 c 1606 1378 m 87 X s black
 gsave  2268 1540 0 0 C 1708.91 1322.29 t 0 r /Helvetica-Bold findfont 35.7377 sf 0 0 m (chi_2c) show NC gr  0 0 1 c 1606 1332 m 87 X s black
 gsave  2268 1540 0 0 C 1708.91 1276.81 t 0 r /Helvetica-Bold findfont 35.7377 sf 0 0 m (psi\(2S\)) show NC gr  1 0 1 c 1606 1286 m 87 X s black
 gsave  2268 1540 0 0 C 1708.91 1231.32 t 0 r /Helvetica-Bold findfont 35.7377 sf 0 0 m (J/psi[3PJ\(8\)]) show NC gr [  12 12 ] 0 sd 1606 1240 m 87 X s
 gsave  2268 1540 0 0 C 1708.91 1185.84 t 0 r /Helvetica-Bold findfont 35.7377 sf 0 0 m (J/psi[1S0\(8\)]) show NC gr  0 1 1 c[ 20 12 4 12] 0 sd 1606 1193 m 87 X s black
 gsave  2268 1540 0 0 C 1708.91 1137.11 t 0 r /Helvetica-Bold findfont 35.7377 sf 0 0 m (chi_0c) show NC gr  0.8 0.8 0.8 c[ 20 12 4 12 4 12 4 12] 0 sd 1606 1147 m 87 X s black
 gsave  2268 1540 0 0 C 1708.91 1091.62 t 0 r /Helvetica-Bold findfont 35.7377 sf 0 0 m (void) show NC gr  0.35 0.83 0.33 c[ 80 20] 0 sd 1606 1101 m 87 X s
 gr  gr showpage
end
%%EOF
